stamp,coin,avg_post_vote,positive_posts,negative_posts,avg_comment_vote,positive_comments,negative_comments,class
2021-04-01 00:00:00.000000,BTC,1,5,2,1,15,17,0
2021-04-01 01:00:00.000000,BTC,1,5,1,1.34,26,8,0
2021-04-01 02:00:00.000000,BTC,1,6,2,1.5,21,10,0
2021-04-01 03:00:00.000000,BTC,1,2,0,1.34,30,8,0
2021-04-01 04:00:00.000000,BTC,1,2,1,1.27,29,10,0
2021-04-01 05:00:00.000000,BTC,1,2,2,1.23,29,3,0
2021-04-01 06:00:00.000000,BTC,1,4,0,1,32,7,0
2021-04-01 07:00:00.000000,BTC,1,2,1,1,22,11,0
2021-04-01 08:00:00.000000,BTC,1,4,1,1,33,11,0
2021-04-01 09:00:00.000000,BTC,1,2,1,1,23,8,0
2021-04-01 10:00:00.000000,BTC,1,2,1,1,26,15,0
2021-04-01 11:00:00.000000,BTC,1,0,1,1,27,12,0
2021-04-01 12:00:00.000000,BTC,1,1,0,1,27,16,0
2021-04-01 13:00:00.000000,BTC,1,0,3,1,20,12,0
2021-04-01 14:00:00.000000,BTC,1,3,0,0,0,0,0
2021-04-01 15:00:00.000000,BTC,1,2,1,1,24,9,0
2021-04-01 16:00:00.000000,BTC,1,5,2,1,25,10,0
2021-04-01 17:00:00.000000,BTC,1,5,0,1,20,13,0
2021-04-01 18:00:00.000000,BTC,1,4,1,1,25,9,0
2021-04-01 19:00:00.000000,BTC,1,5,3,1,25,16,0
2021-04-01 20:00:00.000000,BTC,1,8,2,1,28,7,0
2021-04-01 21:00:00.000000,BTC,1,4,2,1,20,16,0
2021-04-01 22:00:00.000000,BTC,1,4,2,1,24,11,0
2021-04-01 23:00:00.000000,BTC,1,8,3,1,24,12,0
2021-04-02 00:00:00.000000,BTC,1,8,0,1,18,6,0
2021-04-02 01:00:00.000000,BTC,1,3,1,1,22,11,0
2021-04-02 02:00:00.000000,BTC,1,5,2,1,17,12,0
2021-04-02 03:00:00.000000,BTC,1,3,2,1,21,16,0
2021-04-02 04:00:00.000000,BTC,1,3,0,1,20,8,0
2021-04-02 05:00:00.000000,BTC,1,3,1,1,28,7,0
2021-04-02 06:00:00.000000,BTC,1,2,1,1,25,11,0
2021-04-02 07:00:00.000000,BTC,0.94444444444444444444,4,0,1,31,10,2
2021-04-02 08:00:00.000000,BTC,1,6,0,1,21,8,0
2021-04-02 09:00:00.000000,BTC,1,3,2,1,15,11,0
2021-04-02 10:00:00.000000,BTC,1,1,0,1,16,14,0
2021-04-02 11:00:00.000000,BTC,1,1,1,1,32,3,0
2021-04-02 12:00:00.000000,BTC,1,3,0,1,30,13,0
2021-04-02 13:00:00.000000,BTC,1,3,0,1,27,5,0
2021-04-02 14:00:00.000000,BTC,1,3,0,1,27,8,0
2021-04-02 15:00:00.000000,BTC,1,2,1,1,20,6,0
2021-04-02 16:00:00.000000,BTC,1,5,2,1,21,7,0
2021-04-02 17:00:00.000000,BTC,1,5,2,1,30,11,0
2021-04-02 18:00:00.000000,BTC,1,6,3,1,21,7,0
2021-04-02 19:00:00.000000,BTC,1,3,2,1,14,12,0
2021-04-02 20:00:00.000000,BTC,1,3,1,1,25,5,0
2021-04-02 21:00:00.000000,BTC,1,5,1,1,27,14,0
2021-04-02 22:00:00.000000,BTC,1,5,2,1,28,12,0
2021-04-02 23:00:00.000000,BTC,1,7,2,1,18,8,0
2021-04-03 00:00:00.000000,BTC,1,5,2,0,0,0,0
2021-04-03 01:00:00.000000,BTC,1,9,1,1,26,9,0
2021-04-03 02:00:00.000000,BTC,1,6,0,1,21,9,0
2021-04-03 03:00:00.000000,BTC,1.025,9,2,1,31,13,0
2021-04-03 04:00:00.000000,BTC,1.05,4,0,0,0,0,0
2021-04-03 05:00:00.000000,BTC,1,1,0,1,20,10,0
2021-04-03 06:00:00.000000,BTC,1,4,0,1,21,11,0
2021-04-03 07:00:00.000000,BTC,1,2,0,1,22,7,0
2021-04-03 08:00:00.000000,BTC,1,3,0,1,21,10,0
2021-04-03 09:00:00.000000,BTC,1,4,2,1,23,5,0
2021-04-03 10:00:00.000000,BTC,1,4,0,1,24,11,0
2021-04-03 11:00:00.000000,BTC,1,1,1,1,31,12,0
2021-04-03 12:00:00.000000,BTC,1,1,0,1,34,4,0
2021-04-03 13:00:00.000000,BTC,1,2,0,1,24,8,0
2021-04-03 14:00:00.000000,BTC,1,1,1,1,23,14,0
2021-04-03 15:00:00.000000,BTC,1,3,0,1,23,10,0
2021-04-03 16:00:00.000000,BTC,1,1,3,1,22,11,0
2021-04-03 17:00:00.000000,BTC,1,7,0,1,29,7,0
2021-04-03 18:00:00.000000,BTC,1,3,1,1,23,9,0
2021-04-03 19:00:00.000000,BTC,1,3,2,1,25,7,0
2021-04-03 20:00:00.000000,BTC,1.05,2,0,1,24,10,0
2021-04-03 21:00:00.000000,BTC,1.0344827586206897,6,2,1,27,8,0
2021-04-03 22:00:00.000000,BTC,1,2,1,1,21,3,1
2021-04-03 23:00:00.000000,BTC,1.0454545454545455,4,1,1,27,14,0
2021-04-04 00:00:00.000000,BTC,1,4,2,1,27,9,0
2021-04-04 01:00:00.000000,BTC,0.91304347826086956522,3,0,1,26,7,1
2021-04-04 02:00:00.000000,BTC,1.3043478260869565,5,1,0,0,0,0
2021-04-04 03:00:00.000000,BTC,1,3,0,1,21,6,0
2021-04-04 04:00:00.000000,BTC,1,4,0,1,17,11,1
2021-04-04 05:00:00.000000,BTC,1,0,3,1,17,19,0
2021-04-04 06:00:00.000000,BTC,1,1,0,1,21,8,0
2021-04-04 07:00:00.000000,BTC,1,0,1,1,28,12,0
2021-04-04 08:00:00.000000,BTC,1,1,2,1,22,10,0
2021-04-04 09:00:00.000000,BTC,1,1,3,1,28,12,0
2021-04-04 10:00:00.000000,BTC,1,2,0,0,0,0,0
2021-04-04 11:00:00.000000,BTC,1,1,0,1,36,10,0
2021-04-04 12:00:00.000000,BTC,1,1,0,1,21,12,0
2021-04-04 13:00:00.000000,BTC,1,2,1,1,25,16,0
2021-04-04 14:00:00.000000,BTC,1,1,3,1,18,13,0
2021-04-04 15:00:00.000000,BTC,1,1,0,1,19,12,0
2021-04-04 16:00:00.000000,BTC,1,2,0,1,22,10,0
2021-04-04 17:00:00.000000,BTC,1,3,0,1,23,16,2
2021-04-04 18:00:00.000000,BTC,1,4,1,1,21,11,0
2021-04-04 19:00:00.000000,BTC,1.0909090909090909,4,1,1,30,11,0
2021-04-04 20:00:00.000000,BTC,1.2142857142857143,2,1,1,25,10,0
2021-04-04 21:00:00.000000,BTC,1.5238095238095238,6,0,1,22,15,0
2021-04-04 22:00:00.000000,BTC,1.9411764705882353,0,1,1,18,10,0
2021-04-04 23:00:00.000000,BTC,1.3076923076923077,2,1,1,20,10,0
2021-04-05 00:00:00.000000,BTC,2.0833333333333333,6,2,1,25,10,0
2021-04-05 01:00:00.000000,BTC,1,6,0,1,30,8,0
2021-04-05 02:00:00.000000,BTC,1.9285714285714286,3,0,1,27,10,0
2021-04-05 03:00:00.000000,BTC,2.1666666666666667,3,1,1,30,9,0
2021-04-05 04:00:00.000000,BTC,0.85714285714285714286,1,1,1,17,14,0
2021-04-05 05:00:00.000000,BTC,1.6470588235294118,2,0,1,30,8,0
2021-04-05 06:00:00.000000,BTC,1.1333333333333333,3,0,1,22,17,0
2021-04-05 07:00:00.000000,BTC,1.1818181818181818,2,0,0,0,0,0
2021-04-05 08:00:00.000000,BTC,0.75,0,0,1,28,9,0
2021-04-05 09:00:00.000000,BTC,1,2,0,1,22,11,0
2021-04-05 10:00:00.000000,BTC,1,1,1,1,30,4,0
2021-04-05 11:00:00.000000,BTC,1,3,0,1,20,7,0
2021-04-05 12:00:00.000000,BTC,1,1,0,1,20,11,0
2021-04-05 13:00:00.000000,BTC,1,2,0,1,29,12,0
2021-04-05 14:00:00.000000,BTC,1,1,1,1,20,12,0
2021-04-05 15:00:00.000000,BTC,1,0,0,1,26,11,0
2021-04-05 16:00:00.000000,BTC,1,1,0,1,29,5,0
2021-04-05 17:00:00.000000,BTC,1,3,4,1,28,8,0
2021-04-05 18:00:00.000000,BTC,0.96,5,0,1,28,9,0
2021-04-05 19:00:00.000000,BTC,1.08,6,3,1,29,12,2
2021-04-05 20:00:00.000000,BTC,1,4,1,1,23,16,0
2021-04-05 21:00:00.000000,BTC,1,2,1,1,33,7,0
2021-04-05 22:00:00.000000,BTC,1,2,3,1,28,12,0
2021-04-05 23:00:00.000000,BTC,1.0454545454545455,1,0,1,24,9,0
2021-04-06 00:00:00.000000,BTC,1,4,0,1,25,11,0
2021-04-06 01:00:00.000000,BTC,1,9,1,1,20,9,0
2021-04-06 02:00:00.000000,BTC,1,1,1,1,18,13,0
2021-04-06 03:00:00.000000,BTC,1,5,1,1,24,6,0
2021-04-06 04:00:00.000000,BTC,1,7,0,1,28,8,0
2021-04-06 05:00:00.000000,BTC,1,2,4,1,29,11,0
2021-04-06 06:00:00.000000,BTC,1,3,3,1,22,14,1
2021-04-06 07:00:00.000000,BTC,1,4,4,1,18,8,0
2021-04-06 08:00:00.000000,BTC,1,5,0,1,25,8,0
2021-04-06 09:00:00.000000,BTC,1,2,0,1,23,8,0
2021-04-06 10:00:00.000000,BTC,1,2,1,1,25,12,0
2021-04-06 11:00:00.000000,BTC,1,3,1,1,26,9,0
2021-04-06 12:00:00.000000,BTC,1,0,0,1,19,11,0
2021-04-06 13:00:00.000000,BTC,1,1,0,1,29,14,0
2021-04-06 14:00:00.000000,BTC,1,1,2,1,33,9,0
2021-04-06 15:00:00.000000,BTC,1,1,1,1,29,8,0
2021-04-06 16:00:00.000000,BTC,1,2,0,1,24,12,0
2021-04-06 17:00:00.000000,BTC,1,8,1,1,20,10,0
2021-04-06 18:00:00.000000,BTC,1,5,0,1,23,9,0
2021-04-06 19:00:00.000000,BTC,1,6,2,1,26,11,0
2021-04-06 20:00:00.000000,BTC,1,2,1,1,16,15,0
2021-04-06 21:00:00.000000,BTC,1,4,2,1,19,10,0
2021-04-06 22:00:00.000000,BTC,1,1,1,1,20,14,0
2021-04-06 23:00:00.000000,BTC,1,3,0,1,25,7,0
2021-04-07 00:00:00.000000,BTC,1,1,1,1,24,15,0
2021-04-07 01:00:00.000000,BTC,1,2,0,1,23,12,0
2021-04-07 02:00:00.000000,BTC,1,0,2,1.29,33,8,0
2021-04-07 03:00:00.000000,BTC,1,4,1,1.34,15,14,0
2021-04-07 04:00:00.000000,BTC,1,1,1,1,22,11,0
2021-04-07 05:00:00.000000,BTC,1,3,0,1,21,13,0
2021-04-07 06:00:00.000000,BTC,1,1,1,1,28,7,0
2021-04-07 07:00:00.000000,BTC,1,9,1,1,28,10,0
2021-04-07 08:00:00.000000,BTC,1,0,2,1,26,9,0
2021-04-07 09:00:00.000000,BTC,1,2,1,1,21,13,0
2021-04-07 10:00:00.000000,BTC,1,0,2,1,16,12,2
2021-04-07 11:00:00.000000,BTC,1,1,1,1,22,8,0
2021-04-07 12:00:00.000000,BTC,1,3,1,1,24,15,0
2021-04-07 13:00:00.000000,BTC,1,2,1,1,16,8,0
2021-04-07 14:00:00.000000,BTC,1,7,1,1,19,9,0
2021-04-07 15:00:00.000000,BTC,1,2,0,1,28,12,1
2021-04-07 16:00:00.000000,BTC,1,4,1,1,20,10,1
2021-04-07 17:00:00.000000,BTC,1,5,0,1,23,8,0
2021-04-07 18:00:00.000000,BTC,1,3,1,1,25,18,0
2021-04-07 19:00:00.000000,BTC,1,3,2,1,22,6,0
2021-04-07 20:00:00.000000,BTC,1,2,2,1,28,12,0
2021-04-07 21:00:00.000000,BTC,1,3,1,1,26,11,0
2021-04-07 22:00:00.000000,BTC,1,3,3,1,23,14,1
2021-04-07 23:00:00.000000,BTC,1,5,0,1,17,10,0
2021-04-08 00:00:00.000000,BTC,1,4,2,1,18,10,0
2021-04-08 01:00:00.000000,BTC,1,0,1,1.82,25,7,0
2021-04-08 02:00:00.000000,BTC,1.0357142857142857,1,1,1.61,15,9,0
2021-04-08 03:00:00.000000,BTC,1,0,1,1.7,22,13,0
2021-04-08 04:00:00.000000,BTC,1,1,1,2.01,20,13,1
2021-04-08 05:00:00.000000,BTC,1,2,0,1.35,23,13,0
2021-04-08 06:00:00.000000,BTC,1,5,0,1.37,24,17,0
2021-04-08 07:00:00.000000,BTC,1,2,0,0,0,0,0
2021-04-08 08:00:00.000000,BTC,0.9375,1,4,1,24,10,0
2021-04-08 09:00:00.000000,BTC,1,2,0,1,27,8,0
2021-04-08 10:00:00.000000,BTC,1,0,0,1,30,7,0
2021-04-08 11:00:00.000000,BTC,1,3,2,1,23,10,0
2021-04-08 12:00:00.000000,BTC,1,1,0,1,25,23,0
2021-04-08 13:00:00.000000,BTC,1,5,3,1,21,10,0
2021-04-08 14:00:00.000000,BTC,1,2,0,1,27,9,0
2021-04-08 15:00:00.000000,BTC,1,3,1,1,26,10,0
2021-04-08 16:00:00.000000,BTC,1,3,0,1,25,5,0
2021-04-08 17:00:00.000000,BTC,1.05,1,0,0,0,0,2
2021-04-08 18:00:00.000000,BTC,1.1111111111111111,1,1,1,27,15,0
2021-04-08 19:00:00.000000,BTC,1,3,1,1,24,10,0
2021-04-08 20:00:00.000000,BTC,1,2,1,1,19,13,0
2021-04-08 21:00:00.000000,BTC,1.03125,7,0,1,19,9,0
2021-04-08 22:00:00.000000,BTC,1,3,2,1,20,10,0
2021-04-08 23:00:00.000000,BTC,1,5,2,1,18,16,0
2021-04-09 00:00:00.000000,BTC,1,2,1,1,23,9,0
2021-04-09 01:00:00.000000,BTC,1,2,1,1.45,23,11,0
2021-04-09 02:00:00.000000,BTC,1.0555555555555556,1,0,1.78,31,7,0
2021-04-09 03:00:00.000000,BTC,1,3,1,1.97,27,13,0
2021-04-09 04:00:00.000000,BTC,0.94444444444444444444,5,0,2.12,22,12,0
2021-04-09 05:00:00.000000,BTC,1,2,1,2.1,22,16,0
2021-04-09 06:00:00.000000,BTC,1,7,0,1.59,20,11,0
2021-04-09 07:00:00.000000,BTC,0.94736842105263157895,2,0,1,27,17,0
2021-04-09 08:00:00.000000,BTC,1,2,2,1,27,9,0
2021-04-09 09:00:00.000000,BTC,1,1,1,1,29,8,0
2021-04-09 10:00:00.000000,BTC,1,1,1,1,28,13,0
2021-04-09 11:00:00.000000,BTC,1,2,0,1,27,12,0
2021-04-09 12:00:00.000000,BTC,1,6,0,1,24,6,0
2021-04-09 13:00:00.000000,BTC,1,1,0,1,24,7,0
2021-04-09 14:00:00.000000,BTC,1,0,1,1,30,8,0
2021-04-09 15:00:00.000000,BTC,1,6,3,1,29,12,2
2021-04-09 16:00:00.000000,BTC,1,0,0,1,26,14,0
2021-04-09 17:00:00.000000,BTC,1,3,0,1,26,3,0
2021-04-09 18:00:00.000000,BTC,1,1,6,1,25,8,0
2021-04-09 19:00:00.000000,BTC,1,8,0,1,25,6,0
2021-04-09 20:00:00.000000,BTC,1,4,1,1,26,14,0
2021-04-09 21:00:00.000000,BTC,1,8,1,1,18,12,0
2021-04-09 22:00:00.000000,BTC,1,5,1,1,17,10,0
2021-04-09 23:00:00.000000,BTC,1,4,1,1,25,15,0
2021-04-10 00:00:00.000000,BTC,1.04,4,2,1,36,10,0
2021-04-10 01:00:00.000000,BTC,1,3,0,1,25,7,0
2021-04-10 02:00:00.000000,BTC,1,3,0,0,0,0,0
2021-04-14 08:00:00.000000,BTC,1,1,1,1,18,11,2
2021-04-14 09:00:00.000000,BTC,1,13,1,1,20,9,2
2021-04-14 10:00:00.000000,BTC,1,6,3,1,24,9,0
2021-04-14 11:00:00.000000,BTC,1,5,3,1,29,13,2
2021-04-14 12:00:00.000000,BTC,1,4,2,1,22,12,0
2021-04-14 13:00:00.000000,BTC,1,4,1,1,23,13,0
2021-04-14 14:00:00.000000,BTC,1,8,0,1,27,7,0
2021-04-14 15:00:00.000000,BTC,1,5,1,1,23,9,0
2021-04-14 16:00:00.000000,BTC,1,1,1,1,27,5,0
2021-04-14 17:00:00.000000,BTC,1,5,6,1,16,12,1
2021-04-14 18:00:00.000000,BTC,1,6,5,1,32,8,0
2021-04-14 19:00:00.000000,BTC,1.0357142857142857,3,1,1,24,13,1
2021-04-14 20:00:00.000000,BTC,1,7,3,1,22,14,0
2021-04-14 21:00:00.000000,BTC,1,6,1,1,22,12,0
2021-04-14 22:00:00.000000,BTC,1,5,2,1.56,24,12,1
2021-04-14 23:00:00.000000,BTC,1,3,1,1.27,25,12,0
2021-04-15 00:00:00.000000,BTC,1,2,2,2.37,18,12,0
2021-04-15 01:00:00.000000,BTC,1,1,5,1.66,21,17,0
2021-04-15 02:00:00.000000,BTC,1,3,0,1.88,17,15,0
2021-04-15 03:00:00.000000,BTC,1.05,1,4,3.16,19,10,0
2021-04-15 04:00:00.000000,BTC,1,4,0,2.52,24,13,0
2021-04-15 05:00:00.000000,BTC,1,0,3,2.04,20,9,0
2021-04-15 06:00:00.000000,BTC,1,2,2,2.06,22,8,0
2021-04-15 07:00:00.000000,BTC,1,2,2,1.86,23,13,0
2021-04-15 08:00:00.000000,BTC,1,2,1,1.8,23,13,0
2021-04-15 09:00:00.000000,BTC,1,1,1,1.7,29,8,0
2021-04-15 10:00:00.000000,BTC,1,3,2,2.46,20,10,0
2021-04-15 11:00:00.000000,BTC,1,3,1,1.49,29,7,0
2021-04-15 12:00:00.000000,BTC,1,4,3,2.09,26,12,0
2021-04-15 13:00:00.000000,BTC,1,3,1,1,23,12,0
2021-04-15 14:00:00.000000,BTC,1,4,0,1,23,8,0
2021-04-15 15:00:00.000000,BTC,1,3,1,1,20,13,0
2021-04-15 16:00:00.000000,BTC,1,7,0,1,21,12,0
2021-04-15 17:00:00.000000,BTC,1,11,0,1,18,9,0
2021-04-15 18:00:00.000000,BTC,1,4,0,1,24,13,0
2021-04-15 19:00:00.000000,BTC,1,2,1,1,27,11,0
2021-04-15 20:00:00.000000,BTC,1,2,3,1,29,7,0
2021-04-15 21:00:00.000000,BTC,1.03125,7,1,1,32,6,0
2021-04-15 22:00:00.000000,BTC,1,6,4,1.51,20,11,0
2021-04-15 23:00:00.000000,BTC,1,5,0,2.31,24,11,0
2021-04-16 00:00:00.000000,BTC,1,12,2,2.16,18,16,2
2021-04-16 01:00:00.000000,BTC,1,3,1,2.14,21,5,0
2021-04-16 02:00:00.000000,BTC,1,6,2,1.7,27,10,0
2021-04-16 03:00:00.000000,BTC,1,3,2,2.64,27,13,0
2021-04-16 04:00:00.000000,BTC,1.0294117647058824,11,2,3.77,24,7,0
2021-04-16 05:00:00.000000,BTC,1,4,3,2.02,26,6,0
2021-04-16 06:00:00.000000,BTC,1,3,1,2.04,26,11,0
2021-04-16 07:00:00.000000,BTC,1,1,2,3.28,24,11,0
2021-04-16 08:00:00.000000,BTC,0.95454545454545454545,2,3,1.88,20,14,0
2021-04-16 09:00:00.000000,BTC,1,2,2,1.74,30,19,1
2021-04-16 10:00:00.000000,BTC,1,1,4,1.88,22,15,0
2021-04-16 11:00:00.000000,BTC,1,6,3,1.66,20,12,0
2021-04-16 12:00:00.000000,BTC,1,4,0,1.54,16,14,0
2021-04-16 13:00:00.000000,BTC,1,6,0,1,28,9,0
2021-04-16 14:00:00.000000,BTC,1,5,1,1,24,11,1
2021-04-16 15:00:00.000000,BTC,1,6,2,1,18,17,0
2021-04-16 16:00:00.000000,BTC,1,4,1,1,23,14,2
2021-04-16 17:00:00.000000,BTC,1,2,3,1,15,14,0
2021-04-16 18:00:00.000000,BTC,1,4,2,1,22,10,0
2021-04-16 19:00:00.000000,BTC,1,2,1,1,18,14,2
2021-04-16 20:00:00.000000,BTC,1,13,1,1,27,12,0
2021-04-16 21:00:00.000000,BTC,1.0285714285714286,6,2,1,19,14,0
2021-04-16 22:00:00.000000,BTC,1,3,0,1.59,23,9,0
2021-04-16 23:00:00.000000,BTC,1,8,1,1.47,19,15,0
2021-04-17 00:00:00.000000,BTC,1,3,0,1.69,27,11,0
2021-04-17 01:00:00.000000,BTC,1,5,2,2.04,15,11,0
2021-04-17 02:00:00.000000,BTC,1,3,1,1.57,21,15,0
2021-04-17 03:00:00.000000,BTC,1,1,3,1.64,30,15,0
2021-04-17 04:00:00.000000,BTC,1,3,2,1.41,29,8,0
2021-04-17 05:00:00.000000,BTC,1,2,1,1.84,22,10,0
2021-04-17 06:00:00.000000,BTC,1,1,1,1.64,14,17,0
2021-04-17 07:00:00.000000,BTC,1,2,0,1.63,22,7,0
2021-04-17 08:00:00.000000,BTC,1,1,2,1.69,20,14,0
2021-04-17 09:00:00.000000,BTC,1,0,3,1.54,22,13,0
2021-04-17 10:00:00.000000,BTC,1,1,1,3.79,14,18,0
2021-04-17 11:00:00.000000,BTC,1,6,0,1.75,24,12,0
2021-04-17 12:00:00.000000,BTC,1,1,0,1.09,26,10,0
2021-04-17 13:00:00.000000,BTC,1,2,1,1,25,10,0
2021-04-17 14:00:00.000000,BTC,1,3,0,1,34,6,1
2021-04-17 15:00:00.000000,BTC,1,0,4,1,28,10,0
2021-04-17 16:00:00.000000,BTC,1,4,0,1,22,10,0
2021-04-17 17:00:00.000000,BTC,1,2,2,1,24,9,0
2021-04-17 18:00:00.000000,BTC,1,1,0,1,24,11,0
2021-04-17 19:00:00.000000,BTC,1,3,2,1,16,13,0
2021-04-17 20:00:00.000000,BTC,1,1,2,1,21,8,0
2021-04-17 21:00:00.000000,BTC,0.97297297297297297297,10,1,1,23,15,0
2021-04-17 22:00:00.000000,BTC,1,9,2,2.1,27,9,1
2021-04-17 23:00:00.000000,BTC,1,3,1,2.47,18,12,2
2021-04-18 00:00:00.000000,BTC,1,3,2,1.58,25,13,0
2021-04-18 01:00:00.000000,BTC,1,3,1,2.07,29,12,0
2021-04-18 02:00:00.000000,BTC,1,1,0,1.95,24,10,0
2021-04-18 03:00:00.000000,BTC,1,8,0,1.33,20,13,0
2021-04-18 04:00:00.000000,BTC,1,4,2,1.52,25,11,1
2021-04-18 05:00:00.000000,BTC,1,2,0,1.48,18,8,1
2021-04-18 06:00:00.000000,BTC,1,2,2,1.61,19,10,0
2021-04-18 07:00:00.000000,BTC,1,3,1,1.43,22,13,0
2021-04-18 08:00:00.000000,BTC,1,10,6,1.89,21,9,1
2021-04-18 09:00:00.000000,BTC,1,14,5,2.42,28,13,0
2021-04-18 10:00:00.000000,BTC,1,10,3,2.24,21,13,2
2021-04-18 11:00:00.000000,BTC,1.1351351351351351,7,2,1.89,16,15,0
2021-04-18 12:00:00.000000,BTC,1,5,2,1,19,8,0
2021-04-18 13:00:00.000000,BTC,1,7,2,1,30,9,1
2021-04-18 14:00:00.000000,BTC,1,8,9,1,28,10,0
2021-04-18 15:00:00.000000,BTC,1,8,2,1,26,11,0
2021-04-18 16:00:00.000000,BTC,1,3,1,1,24,15,1
2021-04-18 17:00:00.000000,BTC,1,4,3,1,22,9,2
2021-04-18 18:00:00.000000,BTC,1,9,3,1,17,18,0
2021-04-18 19:00:00.000000,BTC,1,8,1,1,27,8,0
2021-04-18 20:00:00.000000,BTC,1,10,2,1,29,12,0
2021-04-18 21:00:00.000000,BTC,1,8,2,1,26,12,0
2021-04-18 22:00:00.000000,BTC,1,4,1,1,14,10,0
2021-04-18 23:00:00.000000,BTC,1,7,3,1,25,10,0
2021-04-19 00:00:00.000000,BTC,1,5,4,1,23,14,0
2021-04-19 01:00:00.000000,BTC,0.96875,10,2,1,34,8,0
2021-04-19 02:00:00.000000,BTC,1,4,3,1,17,10,0
2021-04-19 03:00:00.000000,BTC,1,8,2,1,23,11,0
2021-04-19 04:00:00.000000,BTC,1,3,3,1,24,11,0
2021-04-19 05:00:00.000000,BTC,1,6,0,1,32,14,2
2021-04-19 06:00:00.000000,BTC,1,3,2,1,28,6,0
2021-04-19 07:00:00.000000,BTC,1,4,0,1,27,8,0
2021-04-19 08:00:00.000000,BTC,1,3,0,1,26,10,0
2021-04-19 09:00:00.000000,BTC,1,1,3,1,23,7,0
2021-04-19 10:00:00.000000,BTC,1,7,0,1,21,7,0
2021-04-19 11:00:00.000000,BTC,1,2,1,1,24,4,2
2021-04-19 12:00:00.000000,BTC,1,2,1,1,26,9,0
2021-04-19 13:00:00.000000,BTC,1,5,2,1,22,5,1
2021-04-19 14:00:00.000000,BTC,1,6,1,1,32,10,0
2021-04-19 15:00:00.000000,BTC,1,2,3,1,22,11,0
2021-04-19 16:00:00.000000,BTC,1,5,3,1,26,9,2
2021-04-19 17:00:00.000000,BTC,1,5,0,1,31,8,1
2021-04-19 18:00:00.000000,BTC,1,6,1,1,21,15,0
2021-04-19 19:00:00.000000,BTC,1,5,3,1,21,14,1
2021-04-19 20:00:00.000000,BTC,1,6,3,1,23,14,1
2021-04-19 21:00:00.000000,BTC,1,6,5,1,32,4,0
2021-04-19 22:00:00.000000,BTC,1,6,4,1.35,31,7,2
2021-04-19 23:00:00.000000,BTC,1,3,2,1.6,29,8,0
2021-04-20 00:00:00.000000,BTC,1,1,2,2.09,25,9,0
2021-04-20 01:00:00.000000,BTC,1,2,1,1.95,26,11,0
2021-04-20 02:00:00.000000,BTC,1,4,2,1.65,25,14,0
2021-04-20 03:00:00.000000,BTC,1,6,1,1.9,22,8,0
2021-04-20 04:00:00.000000,BTC,1,5,1,1.9292929292929293,17,10,0
2021-04-20 05:00:00.000000,BTC,1,4,3,1.82,25,8,1
2021-04-20 06:00:00.000000,BTC,1,4,0,2.34,23,12,0
2021-04-20 07:00:00.000000,BTC,1.032258064516129,4,2,2.38,28,8,1
2021-04-20 08:00:00.000000,BTC,1,1,3,2.16,17,11,0
2021-04-20 09:00:00.000000,BTC,1,2,2,1.8,25,10,2
2021-04-20 10:00:00.000000,BTC,1,4,0,1.82,26,8,0
2021-04-20 11:00:00.000000,BTC,1,1,0,1.72,24,11,1
2021-04-20 12:00:00.000000,BTC,1,3,1,1.85,27,13,2
2021-04-20 13:00:00.000000,BTC,1,1,1,1.4,14,4,2
2021-04-20 14:00:00.000000,BTC,1.0625,1,3,1,28,8,0
2021-04-20 15:00:00.000000,BTC,1,1,0,1,20,8,2
2021-04-20 16:00:00.000000,BTC,1,6,1,1,24,7,0
2021-04-20 17:00:00.000000,BTC,1,7,1,1,23,17,0
2021-04-20 18:00:00.000000,BTC,1,2,2,1,26,6,2
2021-04-20 19:00:00.000000,BTC,1,2,2,1,27,9,1
2021-04-20 20:00:00.000000,BTC,1,6,2,1,24,9,0
2021-04-20 21:00:00.000000,BTC,1,9,1,1.86,16,17,0
2021-04-20 22:00:00.000000,BTC,1,7,0,1.76,26,17,0
2021-04-20 23:00:00.000000,BTC,1,2,5,1.95,23,12,0
2021-04-21 00:00:00.000000,BTC,1,3,0,1.96,22,10,0
2021-04-21 01:00:00.000000,BTC,1.0526315789473684,4,1,1.98,27,7,0
2021-04-21 02:00:00.000000,BTC,1,2,2,3.7,21,12,0
2021-04-21 03:00:00.000000,BTC,1,3,2,4.52,30,9,1
2021-04-21 04:00:00.000000,BTC,1,2,1,2.92,19,10,0
2021-04-21 05:00:00.000000,BTC,1,4,1,3.22,18,8,1
2021-04-21 06:00:00.000000,BTC,1,2,1,1.89,20,17,0
2021-04-21 07:00:00.000000,BTC,1,5,3,1.44,24,8,0
2021-04-21 08:00:00.000000,BTC,1,1,1,2.05,26,5,1
2021-04-21 09:00:00.000000,BTC,1,4,2,1.86,16,7,0
2021-04-21 10:00:00.000000,BTC,1,5,2,1.5,16,12,0
2021-04-21 11:00:00.000000,BTC,1,1,2,1.61,26,15,0
2021-04-21 12:00:00.000000,BTC,1,1,1,1.63,19,12,0
2021-04-21 13:00:00.000000,BTC,1,2,1,1.73,20,16,0
2021-04-21 14:00:00.000000,BTC,0.94736842105263157895,1,1,1.78,22,10,0
2021-04-21 15:00:00.000000,BTC,1,2,5,1.51,18,7,1
2021-04-21 16:00:00.000000,BTC,1,4,4,1.6,32,11,0
2021-04-21 17:00:00.000000,BTC,1,4,1,2,22,14,2
2021-04-21 18:00:00.000000,BTC,1,4,4,1.87,31,7,0
2021-04-21 19:00:00.000000,BTC,1,4,1,1.9,22,9,2
2021-04-21 20:00:00.000000,BTC,1,8,1,2.49,21,12,0
2021-04-21 21:00:00.000000,BTC,1,6,3,1.92,25,11,0
2021-04-21 22:00:00.000000,BTC,1,9,2,7.27,22,12,0
2021-04-21 23:00:00.000000,BTC,1,5,2,3.15,20,12,0
2021-04-22 00:00:00.000000,BTC,1.0277777777777778,11,2,2.1,24,17,0
2021-04-22 01:00:00.000000,BTC,1,3,3,1.65,22,16,1
2021-04-22 02:00:00.000000,BTC,1.125,4,1,2.92,25,12,0
2021-04-22 03:00:00.000000,BTC,1,5,2,2.64,25,15,1
2021-04-22 04:00:00.000000,BTC,1,3,1,2.61,25,12,0
2021-04-22 05:00:00.000000,BTC,1,6,1,2.34,19,11,0
2021-04-22 06:00:00.000000,BTC,1,4,1,3.87,22,8,0
2021-04-22 07:00:00.000000,BTC,1,2,1,2.68,18,11,0
2021-04-22 08:00:00.000000,BTC,1.05,4,0,3.43,23,13,0
2021-04-22 09:00:00.000000,BTC,1,2,0,1.8,27,7,2
2021-04-22 10:00:00.000000,BTC,1,5,2,2.11,16,13,0
2021-04-22 11:00:00.000000,BTC,1,5,1,2.17,26,12,0
2021-04-22 12:00:00.000000,BTC,1,1,2,1.92,18,16,0
2021-04-22 13:00:00.000000,BTC,1,3,0,1.8,21,9,1
2021-04-22 14:00:00.000000,BTC,1.0416666666666667,4,1,1.94,18,13,2
2021-04-22 15:00:00.000000,BTC,1,1,3,1.69,20,12,0
2021-04-22 16:00:00.000000,BTC,1,3,0,1.89,22,6,2
2021-04-22 17:00:00.000000,BTC,1,8,2,2.08,20,10,0
2021-04-22 18:00:00.000000,BTC,1,6,2,2.35,18,19,1
2021-04-22 19:00:00.000000,BTC,1,3,2,2.24,32,14,0
2021-04-22 20:00:00.000000,BTC,1,9,5,2.53,28,7,0
2021-04-22 21:00:00.000000,BTC,1,3,4,1.7,22,11,0
2021-04-22 22:00:00.000000,BTC,1,7,1,2.65,18,15,1
2021-04-22 23:00:00.000000,BTC,1,2,0,2.24,22,7,0
2021-04-23 00:00:00.000000,BTC,1.0333333333333333,4,5,2.43,28,12,0
2021-04-23 01:00:00.000000,BTC,1,5,2,3.06,26,10,1
2021-04-23 02:00:00.000000,BTC,1,6,3,11.48,25,15,0
2021-04-23 03:00:00.000000,BTC,1,8,4,3.05,26,14,0
2021-04-23 04:00:00.000000,BTC,1,7,2,1.99,27,13,0
2021-04-23 05:00:00.000000,BTC,1,3,2,1.86,19,15,0
2021-04-23 06:00:00.000000,BTC,1,6,2,2.33,24,14,0
2021-04-23 07:00:00.000000,BTC,1.0138888888888889,15,6,1.88,25,5,1
2021-04-23 08:00:00.000000,BTC,1,11,3,3.07,27,7,0
2021-04-23 09:00:00.000000,BTC,1,5,3,2.9,25,14,1
2021-04-23 10:00:00.000000,BTC,1.0212765957446809,6,3,2.45,21,8,0
2021-04-23 11:00:00.000000,BTC,1,8,3,2.42,27,11,0
2021-04-23 12:00:00.000000,BTC,1,8,2,2.62,32,9,1
2021-04-23 13:00:00.000000,BTC,1,11,5,1.82,22,9,2
2021-04-23 14:00:00.000000,BTC,1.1162790697674419,6,1,2.51,23,12,1
2021-04-23 15:00:00.000000,BTC,1,3,4,2.36,23,8,2
2021-04-23 16:00:00.000000,BTC,1.032258064516129,3,1,1.82,28,10,2
2021-04-23 17:00:00.000000,BTC,1,7,2,1.56,31,6,1
2021-04-23 18:00:00.000000,BTC,1.02,4,5,2.22,20,12,0
2021-04-23 19:00:00.000000,BTC,1,9,9,1.35,21,8,2
2021-04-23 20:00:00.000000,BTC,1,6,2,1.9,23,9,0
2021-04-23 21:00:00.000000,BTC,1,6,1,2.12,37,8,0
2021-04-23 22:00:00.000000,BTC,1,5,1,2.12,23,9,0
2021-04-23 23:00:00.000000,BTC,1,6,5,2.81,26,10,2
2021-04-24 00:00:00.000000,BTC,1,8,2,2.05,20,12,0
2021-04-24 01:00:00.000000,BTC,1,6,2,2.94,17,10,0
2021-04-24 02:00:00.000000,BTC,1,1,2,3.33,26,17,0
2021-04-24 03:00:00.000000,BTC,1,3,2,1.76,20,11,0
2021-04-24 04:00:00.000000,BTC,1.0357142857142857,6,1,1.98,25,15,2
2021-04-24 05:00:00.000000,BTC,1,4,1,2.35,18,16,1
2021-04-24 06:00:00.000000,BTC,1,2,2,1.51,30,14,0
2021-04-24 07:00:00.000000,BTC,1,4,2,1.53,23,11,0
2021-04-24 08:00:00.000000,BTC,1,2,1,1.51,23,11,0
2021-04-24 09:00:00.000000,BTC,1,0,1,1.46,28,10,0
2021-04-24 10:00:00.000000,BTC,1,3,1,1.72,23,2,0
2021-04-24 11:00:00.000000,BTC,1,5,0,2.52,23,15,0
2021-04-24 12:00:00.000000,BTC,1,3,1,2.1,17,14,0
2021-04-24 13:00:00.000000,BTC,1,4,0,1.83,23,15,0
2021-04-24 14:00:00.000000,BTC,1,3,1,1.55,19,15,0
2021-04-24 15:00:00.000000,BTC,1,2,0,1.42,25,11,0
2021-04-24 16:00:00.000000,BTC,1,5,0,1.75,22,7,0
2021-04-24 17:00:00.000000,BTC,1,3,1,1.21,26,17,2
2021-04-24 18:00:00.000000,BTC,1,8,2,1.53,17,7,0
2021-04-24 19:00:00.000000,BTC,1,2,1,2.63,21,9,0
2021-04-24 20:00:00.000000,BTC,1,5,2,2.71,32,14,2
2021-04-24 21:00:00.000000,BTC,1,3,2,2.79,19,9,0
2021-04-24 22:00:00.000000,BTC,1,3,3,2.54,25,17,0
2021-04-24 23:00:00.000000,BTC,1,2,1,2.99,18,11,0
2021-04-25 00:00:00.000000,BTC,1,3,0,2.22,17,8,0
2021-04-25 01:00:00.000000,BTC,1,0,0,2.37,29,8,0
2021-04-25 02:00:00.000000,BTC,1,0,1,2.25,26,11,0
2021-04-25 03:00:00.000000,BTC,1,5,0,2.4,27,8,1
2021-04-25 04:00:00.000000,BTC,1,3,0,1.58,20,15,0
2021-04-25 05:00:00.000000,BTC,1,1,1,1.89,21,13,0
2021-04-25 06:00:00.000000,BTC,1,1,0,2.33,19,10,0
2021-04-25 07:00:00.000000,BTC,1,3,1,3.57,24,14,0
2021-04-25 08:00:00.000000,BTC,1,2,0,1.82,15,15,1
2021-04-25 09:00:00.000000,BTC,1,4,0,1.84,27,13,0
2021-04-25 10:00:00.000000,BTC,1,2,2,1.86,22,9,0
2021-04-25 11:00:00.000000,BTC,1.0625,2,0,1.95,13,15,0
2021-04-25 12:00:00.000000,BTC,1,1,2,1.3,12,17,0
2021-04-25 13:00:00.000000,BTC,1,1,1,1.5,16,8,0
2021-04-25 14:00:00.000000,BTC,1,4,0,0,0,0,1
2021-04-25 15:00:00.000000,BTC,1,2,0,1.24,28,10,0
2021-04-25 16:00:00.000000,BTC,1,3,1,1.29,18,8,0
2021-04-25 17:00:00.000000,BTC,1,6,1,1,19,12,0
2021-04-25 18:00:00.000000,BTC,1,3,3,1,31,7,0
2021-04-25 19:00:00.000000,BTC,1,3,4,1,26,12,0
2021-04-25 20:00:00.000000,BTC,1,2,0,1,19,13,0
2021-04-25 21:00:00.000000,BTC,1,5,1,1,23,9,0
2021-04-25 22:00:00.000000,BTC,1,8,2,1.76,25,8,0
2021-04-25 23:00:00.000000,BTC,1,4,0,1.69,20,15,0
2021-04-26 00:00:00.000000,BTC,0.97058823529411764706,7,1,1.88,27,18,0
2021-04-26 01:00:00.000000,BTC,1,4,1,2.51,20,13,1
2021-04-26 02:00:00.000000,BTC,1,8,4,2.33,25,19,0
2021-04-26 03:00:00.000000,BTC,1,6,6,2.47,20,15,2
2021-04-26 04:00:00.000000,BTC,0.96551724137931034483,2,2,1.87,26,6,0
2021-04-26 05:00:00.000000,BTC,1,7,2,2.06,17,10,2
2021-04-26 06:00:00.000000,BTC,1,0,0,2.2,17,11,2
2021-04-26 07:00:00.000000,BTC,1,0,0,2.66,27,7,0
2021-04-26 08:00:00.000000,BTC,1,1,5,2.01,19,14,0
2021-04-26 09:00:00.000000,BTC,1,3,3,2.13,24,5,0
2021-04-26 10:00:00.000000,BTC,1,3,1,1.66,23,9,0
2021-04-26 11:00:00.000000,BTC,1,3,1,2.81,23,9,0
2021-04-26 12:00:00.000000,BTC,1,4,0,1.75,22,10,0
2021-04-26 13:00:00.000000,BTC,1.05,4,3,1,18,7,0
2021-04-26 14:00:00.000000,BTC,1,4,1,1,25,8,2
2021-04-26 15:00:00.000000,BTC,1,7,0,1,21,18,0
2021-04-26 16:00:00.000000,BTC,1,3,0,1,25,11,0
2021-04-26 17:00:00.000000,BTC,1,5,2,1,27,12,0
2021-04-26 18:00:00.000000,BTC,1,7,2,1,21,8,0
2021-04-26 19:00:00.000000,BTC,1,14,1,1,22,13,0
2021-04-26 20:00:00.000000,BTC,1,4,3,1,23,12,0
2021-04-26 21:00:00.000000,BTC,1,5,0,1.2,19,12,0
2021-04-26 22:00:00.000000,BTC,1,8,2,1.45,19,16,2
2021-04-26 23:00:00.000000,BTC,1,6,3,2.35,28,11,0
2021-04-27 00:00:00.000000,BTC,1,6,2,2.06,24,12,0
2021-04-27 01:00:00.000000,BTC,1,4,1,2.12,28,14,1
2021-04-27 02:00:00.000000,BTC,1,8,2,2.68,25,10,0
2021-04-27 03:00:00.000000,BTC,1,8,3,5.16,26,15,0
2021-04-27 04:00:00.000000,BTC,0.94736842105263157895,4,1,2.51,17,10,0
2021-04-27 05:00:00.000000,BTC,1,5,1,2.89,30,9,0
2021-04-27 06:00:00.000000,BTC,1,0,2,3.49,21,14,0
2021-04-27 07:00:00.000000,BTC,1,2,1,1.87,25,15,0
2021-04-27 08:00:00.000000,BTC,1,3,1,1.44,27,5,0
2021-04-27 09:00:00.000000,BTC,1,2,0,2.15,25,10,0
2021-04-27 10:00:00.000000,BTC,1,3,0,1.87,20,3,0
2021-04-27 11:00:00.000000,BTC,1,4,0,1.88,20,9,2
2021-04-27 12:00:00.000000,BTC,1,5,0,1.89,17,6,0
2021-04-27 13:00:00.000000,BTC,1,5,1,1.44,16,11,0
2021-04-27 14:00:00.000000,BTC,1,2,0,1.3,30,8,0
2021-04-27 15:00:00.000000,BTC,1.0769230769230769,2,1,1,28,4,0
2021-04-27 16:00:00.000000,BTC,1,4,1,1,25,13,0
2021-04-27 17:00:00.000000,BTC,1,4,1,1,21,20,0
2021-04-27 18:00:00.000000,BTC,1,2,0,1,32,2,0
2021-04-27 19:00:00.000000,BTC,1,4,2,1,26,12,0
2021-04-27 20:00:00.000000,BTC,1,9,1,2.56,22,9,0
2021-04-27 21:00:00.000000,BTC,0.96428571428571428571,1,3,2.1,25,6,0
2021-04-27 22:00:00.000000,BTC,1,9,0,1.63,23,12,0
2021-04-27 23:00:00.000000,BTC,1,1,0,1.79,26,11,0
2021-04-28 00:00:00.000000,BTC,1.0714285714285714,6,2,1.69,15,9,0
2021-04-28 01:00:00.000000,BTC,1.2608695652173913,3,2,2.38,21,7,0
2021-04-28 02:00:00.000000,BTC,1.0333333333333333,3,1,2.63,21,14,0
2021-04-28 03:00:00.000000,BTC,1,3,1,2.03,28,7,0
2021-04-28 04:00:00.000000,BTC,1,3,1,1.92,25,14,0
2021-04-28 05:00:00.000000,BTC,1,2,0,2.19,29,5,0
2021-04-28 06:00:00.000000,BTC,1,1,0,2.72,33,9,0
2021-04-28 07:00:00.000000,BTC,1,3,2,3.96,26,12,0
2021-04-28 08:00:00.000000,BTC,1,1,2,2.68,19,11,0
2021-04-28 09:00:00.000000,BTC,1,1,1,2.25,25,8,0
2021-04-28 10:00:00.000000,BTC,1,3,2,2.09,28,12,0
2021-04-28 11:00:00.000000,BTC,1,1,0,2.94,21,11,0
2021-04-28 12:00:00.000000,BTC,1,3,4,1.8181818181818182,27,11,0
2021-04-28 13:00:00.000000,BTC,1,4,1,1.66,25,12,0
2021-04-28 14:00:00.000000,BTC,1,3,0,1.56,15,12,0
2021-04-28 15:00:00.000000,BTC,1,6,2,1.4,23,13,0
2021-04-28 16:00:00.000000,BTC,1,3,0,2.01,23,6,0
2021-04-28 17:00:00.000000,BTC,1,8,2,1.69,21,10,0
2021-04-28 18:00:00.000000,BTC,1,5,1,2.74,30,9,0
2021-04-28 19:00:00.000000,BTC,1,5,2,2.4,22,12,0
2021-04-28 20:00:00.000000,BTC,1,4,0,2.5151515151515152,26,8,0
2021-04-28 21:00:00.000000,BTC,1,5,5,2.56,30,7,0
2021-04-28 22:00:00.000000,BTC,1,6,1,2.65,21,8,0
2021-04-28 23:00:00.000000,BTC,0.97142857142857142857,7,2,2.97,28,9,0
2021-04-29 00:00:00.000000,BTC,1.4347826086956522,2,1,2.92,26,10,0
2021-04-29 01:00:00.000000,BTC,2.1428571428571429,10,1,3.02,20,12,1
2021-04-29 02:00:00.000000,BTC,1.05,2,2,3.05,25,16,0
2021-04-29 03:00:00.000000,BTC,1,3,2,2.36,27,14,0
2021-04-29 04:00:00.000000,BTC,1,5,1,2.40625,22,9,0
2021-04-29 05:00:00.000000,BTC,1.0769230769230769,2,3,2.32,21,15,0
2021-04-29 06:00:00.000000,BTC,1,5,0,2.51,23,14,0
2021-04-29 07:00:00.000000,BTC,1,2,0,2.15,20,10,0
2021-04-29 08:00:00.000000,BTC,1,3,1,2.39,23,10,0
2021-04-29 09:00:00.000000,BTC,1,2,1,1.74,28,7,1
2021-04-29 10:00:00.000000,BTC,1,2,1,1.76,23,9,0
2021-04-29 11:00:00.000000,BTC,1,3,3,2,17,9,0
2021-04-29 12:00:00.000000,BTC,1,3,0,1.8,27,8,0
2021-04-29 13:00:00.000000,BTC,1,3,2,1.46,23,5,0
2021-04-29 14:00:00.000000,BTC,1.0526315789473684,5,0,3.05,26,10,2
2021-04-29 15:00:00.000000,BTC,1,5,0,2.14,15,7,0
2021-04-29 16:00:00.000000,BTC,1,1,2,1.2,25,11,0
2021-04-29 17:00:00.000000,BTC,1,1,1,1.49,18,13,0
2021-04-29 18:00:00.000000,BTC,1.0454545454545455,4,0,2.19,17,13,1
2021-04-29 19:00:00.000000,BTC,1.0555555555555556,3,2,5.2,22,13,0
2021-04-29 20:00:00.000000,BTC,1,2,4,1.88,20,11,0
2021-04-29 21:00:00.000000,BTC,1,0,2,2.7,25,9,1
2021-04-29 22:00:00.000000,BTC,1,2,0,1.69,19,10,0
2021-04-29 23:00:00.000000,BTC,1,4,0,2.34,29,6,0
2021-04-30 00:00:00.000000,BTC,1,3,2,1.87,25,10,0
2021-04-30 01:00:00.000000,BTC,1,4,1,2.91,27,11,0
2021-04-30 02:00:00.000000,BTC,1,2,3,1.78,25,12,0
2021-04-30 03:00:00.000000,BTC,1,5,0,4.46,17,5,0
2021-04-30 04:00:00.000000,BTC,1,3,2,3.65,25,12,0
2021-04-30 05:00:00.000000,BTC,1,3,1,2.81,20,13,0
2021-04-30 06:00:00.000000,BTC,1,5,2,2.79,23,12,0
2021-04-30 07:00:00.000000,BTC,1,2,1,2.87,20,13,0
2021-04-30 08:00:00.000000,BTC,1,2,1,3.81,22,14,0
2021-04-30 09:00:00.000000,BTC,1,4,0,2.05,34,7,0
2021-04-30 10:00:00.000000,BTC,1,0,0,2.2,26,7,0
2021-04-30 11:00:00.000000,BTC,1,1,0,1.96,25,5,0
2021-04-30 12:00:00.000000,BTC,1,3,1,2.55,32,13,0
2021-04-30 13:00:00.000000,BTC,1,3,2,2.8,28,8,0
2021-04-30 14:00:00.000000,BTC,1,6,2,5.66,17,10,0
2021-04-30 15:00:00.000000,BTC,1,1,1,2.85,28,8,0
2021-04-30 16:00:00.000000,BTC,1,2,4,2.95,31,9,0
2021-04-30 17:00:00.000000,BTC,1,1,1,3.89,24,5,0
2021-04-30 18:00:00.000000,BTC,1,5,1,1.86,21,8,2
2021-04-30 19:00:00.000000,BTC,1,7,1,2.26,21,9,0
2021-04-30 20:00:00.000000,BTC,1,4,2,2.41,21,11,2
2021-04-30 21:00:00.000000,BTC,1.0285714285714286,7,2,4.11,33,6,0
2021-04-30 22:00:00.000000,BTC,1,5,0,2.35,19,10,0
2021-04-30 23:00:00.000000,BTC,1,2,1,3.18,23,8,0
2021-05-01 00:00:00.000000,BTC,1,5,5,2.57,26,9,0
2021-05-01 01:00:00.000000,BTC,1,5,0,3.62,24,7,0
2021-05-01 02:00:00.000000,BTC,1,5,1,3.28,27,15,0
2021-05-01 03:00:00.000000,BTC,1,2,0,2.03,28,9,0
2021-05-01 04:00:00.000000,BTC,1,3,0,2.64,24,9,2
2021-05-01 05:00:00.000000,BTC,1,5,2,3.65,21,5,0
2021-05-01 06:00:00.000000,BTC,1,2,2,3.76,19,10,2
2021-05-01 07:00:00.000000,BTC,1,3,0,5.87,24,12,0
2021-05-01 08:00:00.000000,BTC,1,4,1,3.11,17,11,0
2021-05-01 09:00:00.000000,BTC,1,2,0,2.38,26,12,0
2021-05-01 10:00:00.000000,BTC,1,3,1,2.56,21,12,0
2021-05-01 11:00:00.000000,BTC,1,2,2,3.23,20,12,0
2021-05-01 12:00:00.000000,BTC,1,1,1,2.04,14,13,0
2021-05-01 13:00:00.000000,BTC,1,1,1,3.31,23,8,0
2021-05-01 14:00:00.000000,BTC,1,2,1,2.03,20,12,0
2021-05-01 15:00:00.000000,BTC,1,3,0,2.59,18,10,0
2021-05-01 16:00:00.000000,BTC,1,1,0,2.49,25,8,0
2021-05-01 17:00:00.000000,BTC,1,0,1,2.1,24,11,0
2021-05-01 18:00:00.000000,BTC,1,2,1,2.18,23,16,0
2021-05-01 19:00:00.000000,BTC,1,2,3,8.58,13,17,0
2021-05-01 20:00:00.000000,BTC,1,8,0,1.92,25,13,0
2021-05-01 21:00:00.000000,BTC,1,7,1,2.72,19,8,0
2021-05-01 22:00:00.000000,BTC,1,1,1,4.07,18,14,0
2021-05-01 23:00:00.000000,BTC,1,2,1,2.56,23,4,0
2021-05-02 00:00:00.000000,BTC,1,3,0,2.76,20,9,0
2021-05-02 01:00:00.000000,BTC,1,2,1,2.15,22,12,0
2021-05-02 02:00:00.000000,BTC,1,4,5,2.29,28,8,0
2021-05-02 03:00:00.000000,BTC,1,2,1,2.47,28,6,0
2021-05-02 04:00:00.000000,BTC,1,0,2,1.94,30,7,0
2021-05-02 05:00:00.000000,BTC,1,2,1,2.06,24,8,0
2021-05-02 06:00:00.000000,BTC,1,2,1,1.78,21,10,0
2021-05-02 07:00:00.000000,BTC,1,3,3,1.82,28,7,0
2021-05-02 08:00:00.000000,BTC,1,3,4,1.63,29,10,1
2021-05-02 09:00:00.000000,BTC,1,3,1,2.1153846153846154,17,4,0
2021-05-02 10:00:00.000000,BTC,1,4,3,1.524390243902439,14,9,0
2021-05-02 11:00:00.000000,BTC,1,3,1,1.6352941176470588,23,9,0
2021-05-02 12:00:00.000000,BTC,1,5,0,2.57,21,5,0
2021-05-02 13:00:00.000000,BTC,1,3,0,10.17,24,11,0
2021-05-02 14:00:00.000000,BTC,1,3,0,2.38,26,9,0
2021-05-02 15:00:00.000000,BTC,1,0,1,2.99,20,11,0
2021-05-02 16:00:00.000000,BTC,1,0,0,2,32,6,0
2021-05-02 17:00:00.000000,BTC,1,2,1,2.39,28,8,0
2021-05-02 18:00:00.000000,BTC,1,3,0,1.71,25,9,0
2021-05-02 19:00:00.000000,BTC,1,1,4,5.61,30,16,0
2021-05-02 20:00:00.000000,BTC,1,2,1,2.66,20,9,0
2021-05-02 21:00:00.000000,BTC,1,3,0,1.72,30,13,0
2021-05-02 22:00:00.000000,BTC,1,6,2,2.06,30,18,0
2021-05-02 23:00:00.000000,BTC,1,2,4,8.99,25,7,0
2021-05-03 00:00:00.000000,BTC,1,2,1,2.93,24,10,0
2021-05-03 01:00:00.000000,BTC,1,1,0,2.61,24,13,0
2021-05-03 02:00:00.000000,BTC,1,3,2,1.67,23,8,0
2021-05-03 03:00:00.000000,BTC,1,6,0,2.38,24,8,0
2021-05-03 04:00:00.000000,BTC,1,5,2,2.27,29,12,0
2021-05-03 05:00:00.000000,BTC,1,0,0,6.41,28,9,2
2021-05-03 06:00:00.000000,BTC,1,4,0,3.44,25,12,2
2021-05-03 07:00:00.000000,BTC,1,1,2,9.55,22,12,0
2021-05-03 08:00:00.000000,BTC,1,3,0,5.49,22,9,0
2021-05-03 09:00:00.000000,BTC,1,0,0,5.27,28,9,0
2021-05-03 10:00:00.000000,BTC,1,4,1,4.38,16,15,0
2021-05-03 11:00:00.000000,BTC,1,2,1,3.19,21,9,0
2021-05-03 12:00:00.000000,BTC,1,1,0,2.2,25,12,2
2021-05-03 13:00:00.000000,BTC,1,4,4,3.63,24,10,0
2021-05-03 14:00:00.000000,BTC,1,2,0,1.76,20,7,0
2021-05-03 15:00:00.000000,BTC,1,5,2,1.91,20,12,0
2021-05-03 16:00:00.000000,BTC,1,6,0,1.94,23,11,0
2021-05-03 17:00:00.000000,BTC,1,3,0,1.52,14,14,0
2021-05-03 18:00:00.000000,BTC,1,0,1,1.99,15,15,1
2021-05-03 19:00:00.000000,BTC,1,6,1,2.31,34,10,0
2021-05-03 20:00:00.000000,BTC,1.032258064516129,3,5,4.38,21,12,0
2021-05-03 21:00:00.000000,BTC,1,5,2,2.61,20,9,0
2021-05-03 22:00:00.000000,BTC,1,7,4,4.8,25,8,0
2021-05-03 23:00:00.000000,BTC,1,3,2,3.03,18,8,0
2021-05-04 00:00:00.000000,BTC,1,3,1,1.92,20,6,0
2021-05-04 01:00:00.000000,BTC,1,8,2,3.14,16,12,1
2021-05-04 02:00:00.000000,BTC,1,2,2,2.16,26,12,0
2021-05-04 03:00:00.000000,BTC,1,3,1,2.23,24,8,0
2021-05-04 04:00:00.000000,BTC,1,1,1,1.85,23,7,0
2021-05-04 05:00:00.000000,BTC,1,2,0,2.37,27,9,1
2021-05-04 06:00:00.000000,BTC,1,3,1,2.9,20,11,0
2021-05-04 07:00:00.000000,BTC,1,4,1,2.02,26,11,0
2021-05-04 08:00:00.000000,BTC,1,0,0,1.99,26,9,0
2021-05-04 09:00:00.000000,BTC,1,4,0,1.55,33,8,0
2021-05-04 10:00:00.000000,BTC,1,1,0,2.94,19,16,0
2021-05-04 11:00:00.000000,BTC,1,1,1,3.93,24,14,0
2021-05-04 12:00:00.000000,BTC,1,4,0,3.59,25,7,0
2021-05-04 13:00:00.000000,BTC,1,1,0,12.91,26,7,0
2021-05-04 14:00:00.000000,BTC,0.90909090909090909091,2,0,12.27,27,14,0
2021-05-04 15:00:00.000000,BTC,1,3,1,6.93,28,11,0
2021-05-04 16:00:00.000000,BTC,1,0,3,5.61,23,13,0
2021-05-04 17:00:00.000000,BTC,1,4,2,3.14,30,8,0
2021-05-04 18:00:00.000000,BTC,1,5,0,2.11,27,14,1
2021-05-04 19:00:00.000000,BTC,1,8,4,2.06,24,10,1
2021-05-04 20:00:00.000000,BTC,1,3,3,2.2,22,11,1
2021-05-04 21:00:00.000000,BTC,1,3,1,2.65,22,13,0
2021-05-04 22:00:00.000000,BTC,1.0714285714285714,4,2,2.64,25,17,0
2021-05-04 23:00:00.000000,BTC,1.7777777777777778,0,0,1.639344262295082,12,5,0
2021-05-05 00:00:00.000000,BTC,1.2857142857142857,5,0,4.45,32,8,0
2021-05-05 01:00:00.000000,BTC,1.0714285714285714,5,3,2.77,23,10,0
2021-05-05 02:00:00.000000,BTC,1,3,5,4.78,23,10,0
2021-05-05 03:00:00.000000,BTC,1,5,1,4.43,25,9,0
2021-05-05 04:00:00.000000,BTC,1,4,0,2.94,24,11,1
2021-05-05 05:00:00.000000,BTC,1,0,0,3.12,26,14,2
2021-05-05 06:00:00.000000,BTC,1,2,1,2.85,22,13,0
2021-05-05 07:00:00.000000,BTC,1,2,2,3.98,21,10,0
2021-05-05 08:00:00.000000,BTC,1,3,1,2.49,20,9,0
2021-05-05 09:00:00.000000,BTC,1,8,0,1.8,22,12,0
2021-05-05 10:00:00.000000,BTC,1,2,0,2.99,24,10,0
2021-05-05 11:00:00.000000,BTC,1,3,0,3.21,20,10,0
2021-05-05 12:00:00.000000,BTC,1,4,0,3.81,19,8,0
2021-05-05 13:00:00.000000,BTC,1,1,0,2.31,24,16,2
2021-05-05 14:00:00.000000,BTC,1,2,1,3.06,25,16,0
2021-05-05 15:00:00.000000,BTC,1,3,0,1.97,20,9,0
2021-05-05 16:00:00.000000,BTC,1,4,1,5.52,27,10,1
2021-05-05 17:00:00.000000,BTC,1,3,3,3.38,20,13,0
2021-05-05 18:00:00.000000,BTC,1,4,1,5.14,24,13,2
2021-05-05 19:00:00.000000,BTC,1,2,1,5.95,20,11,2
2021-05-05 20:00:00.000000,BTC,1,4,2,3.82,17,6,2
2021-05-05 21:00:00.000000,BTC,1,3,4,2.79,20,11,0
2021-05-05 22:00:00.000000,BTC,1,7,3,3.62,21,11,0
2021-05-05 23:00:00.000000,BTC,1,10,1,2.83,21,10,0
2021-05-06 00:00:00.000000,BTC,1,3,1,1.88,18,16,0
2021-05-06 01:00:00.000000,BTC,1,0,2,2.04,15,11,0
2021-05-06 02:00:00.000000,BTC,1,7,0,1.99,24,12,0
2021-05-06 03:00:00.000000,BTC,1,1,1,3.14,23,12,0
2021-05-06 04:00:00.000000,BTC,1,3,2,2.4,19,19,0
2021-05-06 05:00:00.000000,BTC,1,6,1,2.46,17,11,1
2021-05-06 06:00:00.000000,BTC,1.0526315789473684,4,1,2.11,20,9,0
2021-05-06 07:00:00.000000,BTC,1,2,2,4.37,23,14,0
2021-05-06 08:00:00.000000,BTC,1,2,1,5.81,26,15,0
2021-05-06 09:00:00.000000,BTC,1,0,1,2.61,23,13,0
2021-05-06 10:00:00.000000,BTC,1,6,1,1.78,23,14,0
2021-05-06 11:00:00.000000,BTC,1,3,2,2.14,14,9,1
2021-05-06 12:00:00.000000,BTC,1,3,1,1.56,32,13,0
2021-05-06 13:00:00.000000,BTC,1,3,0,1.91,24,9,0
2021-05-06 14:00:00.000000,BTC,1,4,0,1.98,20,6,0
2021-05-06 15:00:00.000000,BTC,1,5,0,2.12,17,8,2
2021-05-06 16:00:00.000000,BTC,1,2,2,1.96,20,7,0
2021-05-06 17:00:00.000000,BTC,1,5,2,2.11,23,9,0
2021-05-06 18:00:00.000000,BTC,1,4,0,2.16,25,9,0
2021-05-06 19:00:00.000000,BTC,1,2,0,3.25,22,6,0
2021-05-06 20:00:00.000000,BTC,0.9375,4,1,2.61,26,9,0
2021-05-06 21:00:00.000000,BTC,1,6,2,5.67,23,11,0
2021-05-06 22:00:00.000000,BTC,1,3,1,4.06,27,7,0
2021-05-06 23:00:00.000000,BTC,1,3,1,5.04,19,13,1
2021-05-07 00:00:00.000000,BTC,1,4,4,3.33,21,10,0
2021-05-07 01:00:00.000000,BTC,1,1,0,1.77,20,16,0
2021-05-07 02:00:00.000000,BTC,1.0434782608695652,4,3,3.23,17,15,0
2021-05-07 03:00:00.000000,BTC,1,2,3,2.71,14,11,0
2021-05-07 04:00:00.000000,BTC,1,2,0,2.43,24,3,0
2021-05-07 05:00:00.000000,BTC,1,2,1,1.54,23,16,0
2021-05-07 06:00:00.000000,BTC,1,4,0,3.32,22,7,0
2021-05-07 07:00:00.000000,BTC,1,1,2,2.65,25,12,0
2021-05-07 08:00:00.000000,BTC,1,2,3,10.55,24,15,0
2021-05-07 09:00:00.000000,BTC,1,0,1,3.79,21,6,0
2021-05-07 10:00:00.000000,BTC,1,4,1,3.25,15,7,0
2021-05-07 11:00:00.000000,BTC,1,0,0,1.85,21,5,0
2021-05-07 12:00:00.000000,BTC,1,2,0,7.56,19,10,0
2021-05-07 13:00:00.000000,BTC,1,7,2,2.82,24,6,0
2021-05-07 14:00:00.000000,BTC,1,2,0,3.99,26,10,0
2021-05-07 15:00:00.000000,BTC,1,0,1,2.66,23,14,0
2021-05-07 16:00:00.000000,BTC,1,5,1,1.89,21,4,0
2021-05-07 17:00:00.000000,BTC,1,2,0,2.57,18,9,2
2021-05-07 18:00:00.000000,BTC,1,7,0,1.9,25,15,0
2021-05-07 19:00:00.000000,BTC,1,4,1,7.67,25,3,0
2021-05-07 20:00:00.000000,BTC,1,6,0,3.36,34,12,0
2021-05-07 21:00:00.000000,BTC,1,3,1,3.35,24,10,2
2021-05-07 22:00:00.000000,BTC,1,2,1,3.41,16,9,0
2021-05-07 23:00:00.000000,BTC,1,3,1,1.73,22,12,0
2021-05-08 00:00:00.000000,BTC,1,4,3,1.51,19,9,0
2021-05-08 01:00:00.000000,BTC,1,1,2,2.78,23,10,0
2021-05-08 02:00:00.000000,BTC,1,6,2,1.81,17,7,0
2021-05-08 03:00:00.000000,BTC,1,1,0,2.81,22,10,0
2021-05-08 04:00:00.000000,BTC,1,4,0,3.33,19,16,0
2021-05-08 05:00:00.000000,BTC,1,1,2,2.38,25,11,0
2021-05-08 06:00:00.000000,BTC,1,1,0,2.43,25,7,0
2021-05-08 07:00:00.000000,BTC,1,1,0,3.55,24,12,2
2021-05-08 08:00:00.000000,BTC,1,3,1,3.86,20,5,0
2021-05-08 09:00:00.000000,BTC,1,1,1,2.8,21,15,0
2021-05-08 10:00:00.000000,BTC,1,3,3,3.07,15,11,0
2021-05-08 11:00:00.000000,BTC,1,0,0,2.11,14,7,0
2021-05-08 12:00:00.000000,BTC,1,1,0,1.81,21,16,2
2021-05-08 13:00:00.000000,BTC,1,2,0,2.41,25,17,0
2021-05-08 14:00:00.000000,BTC,1,0,0,3.83,27,4,0
2021-05-08 15:00:00.000000,BTC,1,3,0,1.69,17,8,0
2021-05-08 16:00:00.000000,BTC,1,6,0,3.13,22,8,0
2021-05-08 17:00:00.000000,BTC,1,5,1,3.77,26,4,0
2021-05-08 18:00:00.000000,BTC,1,2,1,4.36,21,12,0
2021-05-08 19:00:00.000000,BTC,1,3,1,2.16,17,7,0
2021-05-08 20:00:00.000000,BTC,1,2,2,4.82,32,8,1
2021-05-08 21:00:00.000000,BTC,1,2,0,2.4,24,13,2
2021-05-08 22:00:00.000000,BTC,1,5,2,3.31,30,10,2
2021-05-08 23:00:00.000000,BTC,1,0,0,4.2,28,5,0
2021-05-09 00:00:00.000000,BTC,1,3,4,3.51,26,12,0
2021-05-09 01:00:00.000000,BTC,1,3,0,2.97,20,8,0
2021-05-09 02:00:00.000000,BTC,1.0434782608695652,3,1,2.404040404040404,21,11,0
2021-05-09 03:00:00.000000,BTC,1,2,3,2.73,18,14,0
2021-05-09 04:00:00.000000,BTC,1,3,1,3.67,18,9,0
2021-05-09 05:00:00.000000,BTC,1,2,1,4.5,21,9,0
2021-05-09 06:00:00.000000,BTC,1,2,2,4.22,29,11,2
2021-05-09 07:00:00.000000,BTC,1,1,2,2.78,21,16,0
2021-05-09 08:00:00.000000,BTC,1,1,1,3.99,27,12,0
2021-05-09 09:00:00.000000,BTC,1,2,0,3.1,19,12,0
2021-05-09 10:00:00.000000,BTC,1,3,0,5.65,27,13,0
2021-05-09 11:00:00.000000,BTC,1,0,0,2.9,28,7,0
2021-05-09 12:00:00.000000,BTC,1,4,0,1.84,18,14,0
2021-05-09 13:00:00.000000,BTC,1,3,1,2.08,24,10,0
2021-05-09 14:00:00.000000,BTC,1,4,0,8.74,19,8,0
2021-05-09 15:00:00.000000,BTC,1,2,0,4.62,25,9,0
2021-05-09 16:00:00.000000,BTC,1,4,1,2.89,18,7,0
2021-05-09 17:00:00.000000,BTC,1,6,3,4.08,18,12,1
2021-05-09 18:00:00.000000,BTC,1,0,0,2.27,13,9,2
2021-05-09 19:00:00.000000,BTC,1,5,0,2.79,26,7,0
2021-05-09 20:00:00.000000,BTC,1,3,2,3.61,17,13,0
2021-05-09 21:00:00.000000,BTC,1,5,2,2.7,26,9,0
2021-05-09 22:00:00.000000,BTC,1,4,0,2,23,14,0
2021-05-09 23:00:00.000000,BTC,1,3,1,2.27,28,11,0
2021-05-10 00:00:00.000000,BTC,1,4,3,2.22,26,12,0
2021-05-10 01:00:00.000000,BTC,1,5,0,3.26,23,15,2
2021-05-10 02:00:00.000000,BTC,1,4,1,2.02,21,8,0
2021-05-10 03:00:00.000000,BTC,1,3,1,2.61,29,9,0
2021-05-10 04:00:00.000000,BTC,1,1,2,2.54,22,9,0
2021-05-10 05:00:00.000000,BTC,1,3,0,2.7,32,11,2
2021-05-10 06:00:00.000000,BTC,1,2,1,1.79,25,10,0
2021-05-10 07:00:00.000000,BTC,1,1,1,2.12,18,17,0
2021-05-10 08:00:00.000000,BTC,1,3,2,2.06,30,10,0
2021-05-10 09:00:00.000000,BTC,1,0,0,2.2,31,9,0
2021-05-10 10:00:00.000000,BTC,1,4,1,3.72,27,11,0
2021-05-10 11:00:00.000000,BTC,1,2,1,2.78,26,7,0
2021-05-10 12:00:00.000000,BTC,1,0,1,2.02,23,9,0
2021-05-10 13:00:00.000000,BTC,1,2,1,2.07,28,9,0
2021-05-10 14:00:00.000000,BTC,1,4,0,2.09,20,6,0
2021-05-10 15:00:00.000000,BTC,1,5,0,2.85,22,11,0
2021-05-10 16:00:00.000000,BTC,1,4,1,2.23,19,10,0
2021-05-10 17:00:00.000000,BTC,1,2,3,18.61,17,11,0
2021-05-10 18:00:00.000000,BTC,1,6,1,3.2,25,13,0
2021-05-10 19:00:00.000000,BTC,1,2,2,4.82,16,11,1
2021-05-10 20:00:00.000000,BTC,1,2,2,5.09,24,9,2
2021-05-10 21:00:00.000000,BTC,1,4,2,2.72,23,12,1
2021-05-10 22:00:00.000000,BTC,1,2,1,2.19,14,9,1
2021-05-10 23:00:00.000000,BTC,1,4,2,2.14,25,7,0
2021-05-11 00:00:00.000000,BTC,1,4,1,8.7,28,11,1
2021-05-11 01:00:00.000000,BTC,1,3,1,2.17,11,12,0
2021-05-11 02:00:00.000000,BTC,1.032258064516129,4,3,2.46,22,14,0
2021-05-11 03:00:00.000000,BTC,1.0357142857142857,2,1,2.93,23,6,2
2021-05-11 04:00:00.000000,BTC,1,4,1,3.22,13,15,0
2021-05-11 05:00:00.000000,BTC,1,4,1,2.71,16,8,0
2021-05-11 06:00:00.000000,BTC,1,3,1,3.84,27,7,0
2021-05-11 07:00:00.000000,BTC,1,1,1,3.93,18,13,1
2021-05-11 08:00:00.000000,BTC,1,4,1,2.81,16,18,2
2021-05-11 09:00:00.000000,BTC,1,2,0,4.45,28,8,0
2021-05-11 10:00:00.000000,BTC,1,2,0,4.9,12,4,1
2021-05-11 11:00:00.000000,BTC,1,1,0,5.24,26,9,2
2021-05-11 12:00:00.000000,BTC,1,2,0,3.27,19,8,0
2021-05-11 13:00:00.000000,BTC,1,0,0,2.98,29,3,0
2021-05-11 14:00:00.000000,BTC,1,5,1,4.52,21,12,2
2021-05-11 15:00:00.000000,BTC,1,1,1,3.3956043956043956,18,12,0
2021-05-11 16:00:00.000000,BTC,1,2,0,3.2,25,13,1
2021-05-11 17:00:00.000000,BTC,1,2,4,1.91,24,13,0
2021-05-11 18:00:00.000000,BTC,1.0333333333333333,5,4,2.34,27,18,0
2021-05-11 19:00:00.000000,BTC,1,6,0,2.91,22,12,0
2021-05-11 20:00:00.000000,BTC,1,4,3,3.72,25,15,0
2021-05-11 21:00:00.000000,BTC,1,6,2,3.98,18,9,0
2021-05-11 22:00:00.000000,BTC,1,2,2,3.31,24,14,0
2021-05-11 23:00:00.000000,BTC,1,4,1,1.65,22,16,0
2021-05-12 00:00:00.000000,BTC,1,3,1,2.3,24,12,0
2021-05-12 01:00:00.000000,BTC,1,4,1,1.51,14,8,0
2021-05-12 02:00:00.000000,BTC,1,3,1,1.94,17,17,0
2021-05-12 03:00:00.000000,BTC,1,5,2,2.97,22,8,0
2021-05-12 04:00:00.000000,BTC,1,2,1,2.23,24,7,0
2021-05-12 05:00:00.000000,BTC,1,1,3,2.01,21,13,2
2021-05-12 06:00:00.000000,BTC,1,4,0,1.97,13,15,0
2021-05-12 07:00:00.000000,BTC,1,8,1,3.99,25,8,0
2021-05-12 08:00:00.000000,BTC,1,1,1,2.64,26,8,2
2021-05-12 09:00:00.000000,BTC,1,0,1,2.4848484848484848,15,7,0
2021-05-12 10:00:00.000000,BTC,1,3,1,1.62,24,8,0
2021-05-12 11:00:00.000000,BTC,1,4,2,2.04,17,3,0
2021-05-12 12:00:00.000000,BTC,1,0,0,2.3636363636363636,24,8,0
2021-05-12 13:00:00.000000,BTC,1,2,0,1.82,24,6,0
2021-05-12 14:00:00.000000,BTC,1,6,2,3.13,25,9,0
2021-05-12 15:00:00.000000,BTC,1,3,0,4.76,20,8,1
2021-05-12 16:00:00.000000,BTC,1,3,1,2.3,22,3,0
2021-05-12 17:00:00.000000,BTC,1,0,1,6.48,23,16,0
2021-05-12 18:00:00.000000,BTC,1,3,4,2.58,18,15,0
2021-05-12 19:00:00.000000,BTC,1.0740740740740741,2,2,4.08,25,16,1
2021-05-12 20:00:00.000000,BTC,1,4,4,2.59,24,7,1
2021-05-12 21:00:00.000000,BTC,1,3,1,2.24,25,10,0
2021-05-12 22:00:00.000000,BTC,1,1,2,2.3,23,7,0
2021-05-12 23:00:00.000000,BTC,1.037037037037037,7,1,2.33,23,10,1
2021-05-13 00:00:00.000000,BTC,1,4,1,2.93,14,12,0
2021-05-13 01:00:00.000000,BTC,1.0666666666666667,1,1,2.68,32,16,0
2021-05-13 02:00:00.000000,BTC,1,1,0,2.44,17,6,0
2021-05-13 03:00:00.000000,BTC,1.0169491525423729,4,3,37.53,15,17,1
2021-05-13 04:00:00.000000,BTC,1,10,11,11.28,18,14,1
2021-05-13 05:00:00.000000,BTC,1.01,19,7,2.18,14,14,0
2021-05-13 06:00:00.000000,BTC,1,14,12,3.1,20,11,2
2021-05-13 07:00:00.000000,BTC,1,10,10,3.79,12,12,0
2021-05-13 08:00:00.000000,BTC,1,10,12,3.58,20,14,0
2021-05-13 09:00:00.000000,BTC,1,5,6,1.62,16,12,0
2021-05-13 10:00:00.000000,BTC,1,5,5,2.02,31,8,0
2021-05-13 11:00:00.000000,BTC,1,4,3,2.03,18,14,0
2021-05-13 12:00:00.000000,BTC,1,3,1,1.9,19,9,0
2021-05-13 13:00:00.000000,BTC,1,7,3,2.21,25,15,1
2021-05-13 14:00:00.000000,BTC,1,8,2,2.28,24,15,1
2021-05-13 15:00:00.000000,BTC,1,9,4,3.17,26,20,0
2021-05-13 16:00:00.000000,BTC,1,5,5,3.31,18,9,2
2021-05-13 17:00:00.000000,BTC,1.0196078431372549,8,7,3.64,18,12,0
2021-05-13 18:00:00.000000,BTC,1.0185185185185185,9,2,2.21,21,13,0
2021-05-13 19:00:00.000000,BTC,1,13,8,2.92,29,8,0
2021-05-13 20:00:00.000000,BTC,1,7,5,1.94,18,10,1
2021-05-13 21:00:00.000000,BTC,1,4,4,2.14,26,15,1
2021-05-13 22:00:00.000000,BTC,1.0298507462686567,12,2,2.04,23,9,0
2021-05-13 23:00:00.000000,BTC,1,12,6,1.56,30,14,1
2021-05-14 00:00:00.000000,BTC,1,5,1,2.46,17,9,2
2021-05-14 01:00:00.000000,BTC,1,4,5,7.8,21,7,2
2021-05-14 02:00:00.000000,BTC,1,2,2,2.95,22,15,0
2021-05-14 03:00:00.000000,BTC,1,6,3,3.63,15,11,1
2021-05-14 04:00:00.000000,BTC,1,8,3,2.79,26,10,2
2021-05-14 05:00:00.000000,BTC,1,5,2,1.93,17,13,0
2021-05-14 06:00:00.000000,BTC,1,5,1,2.5,22,6,0
2021-05-14 07:00:00.000000,BTC,1,3,0,1.99,17,17,1
2021-05-14 08:00:00.000000,BTC,1,2,3,2.92,17,11,0
2021-05-14 09:00:00.000000,BTC,1,8,1,6.87,23,12,0
2021-05-14 10:00:00.000000,BTC,1,7,3,3.15,23,12,0
2021-05-14 11:00:00.000000,BTC,1,2,1,0.65,18,9,1
2021-05-14 12:00:00.000000,BTC,1,1,2,2.25,18,9,2
2021-05-14 13:00:00.000000,BTC,1,4,0,3.62,30,10,0
2021-05-14 14:00:00.000000,BTC,1,5,1,2.58,26,12,0
2021-05-14 15:00:00.000000,BTC,1,3,1,4.23,19,13,0
2021-05-14 16:00:00.000000,BTC,1,3,3,3.61,21,8,0
2021-05-14 17:00:00.000000,BTC,1,2,1,2.12,26,14,0
2021-05-14 18:00:00.000000,BTC,1,4,4,3.42,18,13,2
2021-05-14 19:00:00.000000,BTC,1.1111111111111111,7,0,1.59,24,11,0
2021-05-14 20:00:00.000000,BTC,1,7,3,4.43,23,19,0
2021-05-14 21:00:00.000000,BTC,1.0256410256410256,7,2,3.4,28,9,0
2021-05-14 22:00:00.000000,BTC,1,4,4,2.73,17,5,0
2021-05-14 23:00:00.000000,BTC,1,2,2,2.65,23,13,0
2021-05-15 00:00:00.000000,BTC,1,5,0,1.67,22,10,0
2021-05-15 01:00:00.000000,BTC,1,1,0,3.21,24,17,1
2021-05-15 02:00:00.000000,BTC,1,3,2,2.61,17,10,2
2021-05-15 03:00:00.000000,BTC,1,1,1,2.02,16,14,0
2021-05-15 04:00:00.000000,BTC,1,4,1,3.7,26,19,0
2021-05-15 05:00:00.000000,BTC,1,6,2,2.05,24,7,0
2021-05-15 06:00:00.000000,BTC,1,4,1,1.85,24,7,2
2021-05-15 07:00:00.000000,BTC,1,3,1,3.12,25,11,1
2021-05-15 08:00:00.000000,BTC,1,3,2,2.57,23,11,0
2021-05-15 09:00:00.000000,BTC,1,7,0,2.09,25,10,0
2021-05-15 10:00:00.000000,BTC,1,3,2,1.08,21,6,0
2021-05-15 11:00:00.000000,BTC,1,1,2,2.48,22,15,1
2021-05-15 12:00:00.000000,BTC,0.94736842105263157895,6,4,1.53,21,12,1
2021-05-15 13:00:00.000000,BTC,1,0,1,2.66,13,11,0
2021-05-15 14:00:00.000000,BTC,1,3,0,3.59,21,4,0
2021-05-15 15:00:00.000000,BTC,0.95238095238095238095,2,4,2.82,16,17,0
2021-05-15 16:00:00.000000,BTC,1,1,2,1.37,17,11,2
2021-05-15 17:00:00.000000,BTC,1,2,1,5.35,22,5,0
2021-05-15 18:00:00.000000,BTC,1,2,0,2.51,27,11,0
2021-05-15 19:00:00.000000,BTC,1,10,2,1.29,23,9,0
2021-05-15 20:00:00.000000,BTC,1.0833333333333333,2,2,1.76,23,13,0
2021-05-15 21:00:00.000000,BTC,1,5,2,3.64,19,15,1
2021-05-15 22:00:00.000000,BTC,1,8,1,2.53,8,12,0
2021-05-15 23:00:00.000000,BTC,1,4,1,2.63,25,15,0
2021-05-16 00:00:00.000000,BTC,1,5,4,1.77,27,10,0
2021-05-16 01:00:00.000000,BTC,1,3,2,2.39,20,14,0
2021-05-16 02:00:00.000000,BTC,1,2,1,1.78,25,12,0
2021-05-16 03:00:00.000000,BTC,1.0769230769230769,1,0,2.23,28,6,0
2021-05-16 04:00:00.000000,BTC,1,3,0,2.29,20,15,1
2021-05-16 05:00:00.000000,BTC,1,3,1,2.02,19,13,2
2021-05-16 06:00:00.000000,BTC,1,2,2,3.03,18,13,2
2021-05-16 07:00:00.000000,BTC,1,3,0,7.76,21,13,0
2021-05-16 08:00:00.000000,BTC,1,6,1,3.17,14,6,0
2021-05-16 09:00:00.000000,BTC,1,1,1,3.13,21,20,0
2021-05-16 10:00:00.000000,BTC,1,3,0,2.08,19,11,0
2021-05-16 11:00:00.000000,BTC,1,2,3,2.27,20,19,2
2021-05-16 12:00:00.000000,BTC,1,1,2,2.37,30,9,0
2021-05-16 13:00:00.000000,BTC,1,4,1,1,0,0,0
2021-05-16 13:00:00.000000,BTC,1,4,1,1,0,0,0
2021-05-16 13:00:00.000000,BTC,1,4,1,2,0,0,0
2021-05-16 13:00:00.000000,BTC,1,4,1,1,0,0,0
2021-05-16 13:00:00.000000,BTC,1,4,1,3.7157894736842105,14,11,0
2021-05-16 14:00:00.000000,BTC,1,1,0,14,0,0,0
2021-05-16 14:00:00.000000,BTC,1,1,0,5.3061224489795918,24,9,0
2021-05-16 14:00:00.000000,BTC,1,1,0,5,0,0,0
2021-05-16 15:00:00.000000,BTC,1,2,2,1.33,21,8,0
2021-05-16 16:00:00.000000,BTC,1,2,0,1.84,22,10,1
2021-05-16 17:00:00.000000,BTC,1,9,0,4.36,19,12,0
2021-05-16 18:00:00.000000,BTC,1,3,3,6.7,25,11,0
2021-05-16 19:00:00.000000,BTC,1,2,1,4.4,26,10,1
2021-05-16 20:00:00.000000,BTC,1,0,2,9.8,19,14,1
2021-05-16 21:00:00.000000,BTC,1,3,0,3.02,14,14,0
2021-05-16 22:00:00.000000,BTC,1,3,2,2.57,21,17,0
2021-05-16 23:00:00.000000,BTC,1.0196078431372549,10,6,2.71,27,9,1
2021-05-17 00:00:00.000000,BTC,1,20,10,3.74,21,12,0
2021-05-17 01:00:00.000000,BTC,1.02,12,5,3.86,25,14,1
2021-05-17 02:00:00.000000,BTC,1,23,7,3.35,20,10,2
2021-05-17 03:00:00.000000,BTC,0.98648648648648648649,13,15,2.73,26,11,0
2021-05-17 04:00:00.000000,BTC,1,6,4,3.38,16,14,2
2021-05-17 05:00:00.000000,BTC,1,15,5,2.56,19,17,1
2021-05-17 06:00:00.000000,BTC,0.97727272727272727273,8,5,2.16,15,9,1
2021-05-17 07:00:00.000000,BTC,1,9,3,2.78,18,11,0
2021-05-17 08:00:00.000000,BTC,1,10,1,2.67,17,15,1
2021-05-17 09:00:00.000000,BTC,1,8,0,2.64,29,13,2
2021-05-17 10:00:00.000000,BTC,1,2,4,1.99,24,9,2
2021-05-17 11:00:00.000000,BTC,1,15,1,3.06,20,12,0
2021-05-17 12:00:00.000000,BTC,1,7,1,1.85,21,14,2
2021-05-17 13:00:00.000000,BTC,1,17,4,2.02,24,13,0
2021-05-17 14:00:00.000000,BTC,1,5,3,2.32,20,11,0
2021-05-17 15:00:00.000000,BTC,1,6,1,1.97,19,14,1
2021-05-17 16:00:00.000000,BTC,1,7,2,3.55,15,16,2
2021-05-17 17:00:00.000000,BTC,0.98412698412698412698,14,4,1.46,22,14,1
2021-05-17 18:00:00.000000,BTC,1,7,5,5.08,20,18,0
2021-05-17 19:00:00.000000,BTC,1,7,6,2.15,22,11,1
2021-05-17 20:00:00.000000,BTC,0.98039215686274509804,14,1,1.9,15,6,1
2021-05-17 21:00:00.000000,BTC,1,7,5,2.27,24,8,1
2021-05-17 22:00:00.000000,BTC,1,10,8,2.23,20,15,0
2021-05-17 23:00:00.000000,BTC,1,6,5,2.23,16,10,2
2021-05-18 00:00:00.000000,BTC,1,9,2,2.9,23,15,2
2021-05-18 01:00:00.000000,BTC,1,8,4,3.27,20,6,2
2021-05-18 02:00:00.000000,BTC,1,6,7,2.32,22,12,1
2021-05-18 03:00:00.000000,BTC,1,8,5,2.48,24,25,1
2021-05-18 04:00:00.000000,BTC,1,4,2,3.25,26,8,2
2021-05-18 05:00:00.000000,BTC,1,5,3,2.41,21,11,2
2021-05-18 06:00:00.000000,BTC,1,2,0,2.36,20,15,2
2021-05-18 07:00:00.000000,BTC,1,3,4,2.57,24,13,0
2021-05-18 08:00:00.000000,BTC,1,2,4,2.75,16,20,0
2021-05-18 09:00:00.000000,BTC,1,4,0,2.06,20,17,2
2021-05-18 10:00:00.000000,BTC,1,2,0,5.28,24,7,0
2021-05-18 11:00:00.000000,BTC,1,5,1,1.8,31,8,0
2021-05-18 12:00:00.000000,BTC,1,5,5,2.72,35,10,0
2021-05-18 13:00:00.000000,BTC,1,5,0,3.63,19,13,0
2021-05-18 14:00:00.000000,BTC,1,4,1,3.22,23,12,0
2021-05-18 15:00:00.000000,BTC,1,2,1,2.41,20,13,0
2021-05-18 16:00:00.000000,BTC,1,3,2,2.8,23,13,0
2021-05-18 17:00:00.000000,BTC,1,6,4,2.53,21,13,1
2021-05-18 18:00:00.000000,BTC,1,8,0,2.24,23,6,0
2021-05-18 19:00:00.000000,BTC,1,11,3,2.53,27,11,0
2021-05-18 20:00:00.000000,BTC,0.97959183673469387755,9,2,2.87,26,11,0
2021-05-18 21:00:00.000000,BTC,1,3,1,2.28,23,8,2
2021-05-18 22:00:00.000000,BTC,1,1,3,2.63,26,8,0
2021-05-18 23:00:00.000000,BTC,1,4,0,2.77,27,9,1
2021-05-19 00:00:00.000000,BTC,1,5,0,4.35,20,15,0
2021-05-19 01:00:00.000000,BTC,1,1,1,1.97,15,11,0
2021-05-19 02:00:00.000000,BTC,1,3,3,1.97,25,4,0
2021-05-19 03:00:00.000000,BTC,1,2,2,3.8,20,12,0
2021-05-19 04:00:00.000000,BTC,1,1,4,2.6,20,8,0
2021-05-19 05:00:00.000000,BTC,1,7,2,2.84,20,12,0
2021-05-19 06:00:00.000000,BTC,1.0212765957446809,6,5,3.28,26,6,1
2021-05-19 07:00:00.000000,BTC,1.0178571428571429,6,5,3.77,22,12,1
2021-05-19 08:00:00.000000,BTC,1,12,3,2.1,10,13,0
2021-05-19 09:00:00.000000,BTC,1,6,2,2.46,24,8,1
2021-05-19 10:00:00.000000,BTC,1,16,4,1.67,20,16,0
2021-05-19 11:00:00.000000,BTC,1,11,2,1.99,22,9,0
2021-05-19 12:00:00.000000,BTC,1,10,5,3.61,26,9,2
2021-05-19 13:00:00.000000,BTC,1,5,4,6.47,28,9,0
2021-05-19 14:00:00.000000,BTC,1,3,1,3.03,14,9,0
2021-05-19 15:00:00.000000,BTC,1,8,1,3.7,19,12,1
2021-05-19 16:00:00.000000,BTC,1,12,8,3,24,16,1
2021-05-19 17:00:00.000000,BTC,0.97916666666666666667,21,7,2.09,33,10,1
2021-05-19 18:00:00.000000,BTC,1.02,13,10,3.25,22,17,2
2021-05-19 19:00:00.000000,BTC,1,13,18,2.45,31,8,2
2021-05-19 20:00:00.000000,BTC,1.01,17,10,2.15,20,9,0
2021-05-19 21:00:00.000000,BTC,1.01,14,7,2.17,22,19,2
2021-05-19 22:00:00.000000,BTC,1.01,18,9,2.77,21,12,0
2021-05-19 23:00:00.000000,BTC,1,18,4,2.9,23,10,1
2021-05-20 00:00:00.000000,BTC,1,16,5,2.15,23,14,2
2021-05-20 01:00:00.000000,BTC,1,12,10,2.09,27,7,1
2021-05-20 02:00:00.000000,BTC,1.0149253731343284,13,4,2.11,25,3,0
2021-05-20 03:00:00.000000,BTC,1,11,5,2.52,23,10,0
2021-05-20 04:00:00.000000,BTC,1,9,8,2.65,22,12,1
2021-05-20 05:00:00.000000,BTC,0.97916666666666666667,6,8,1.88,22,12,1
2021-05-20 06:00:00.000000,BTC,1,7,4,2.06,23,9,2
2021-05-20 07:00:00.000000,BTC,1,6,3,2.45,17,13,2
2021-05-20 08:00:00.000000,BTC,1,5,1,14.01,30,11,0
2021-05-20 09:00:00.000000,BTC,1,3,2,2.05,17,14,2
2021-05-20 10:00:00.000000,BTC,1,7,3,3.94,14,9,0
2021-05-20 11:00:00.000000,BTC,1,4,1,3.55,27,7,0
2021-05-20 12:00:00.000000,BTC,1.0303030303030303,5,0,3,22,11,0
2021-05-20 13:00:00.000000,BTC,0.96875,8,1,3.01,25,12,0
2021-05-20 14:00:00.000000,BTC,1,5,1,1.65,14,15,0
2021-05-20 15:00:00.000000,BTC,1,4,6,2.97,18,9,0
2021-05-20 16:00:00.000000,BTC,1.032258064516129,6,2,2.44,13,12,0
2021-05-20 17:00:00.000000,BTC,1,7,2,2.32,10,12,2
2021-05-20 18:00:00.000000,BTC,1.0188679245283019,12,6,1.81,30,7,0
2021-05-20 19:00:00.000000,BTC,1,10,2,2.25,28,6,0
2021-05-20 20:00:00.000000,BTC,1,5,6,2.8,31,5,0
2021-05-20 21:00:00.000000,BTC,1,4,3,2.37,24,12,1
2021-05-20 22:00:00.000000,BTC,1,10,3,3.08,32,10,0
2021-05-20 23:00:00.000000,BTC,1,6,3,2.52,33,11,0
2021-05-21 00:00:00.000000,BTC,1,9,4,1.75,20,6,0
2021-05-21 01:00:00.000000,BTC,1,4,2,2.7,21,11,0
2021-05-21 02:00:00.000000,BTC,1,3,3,2,30,15,2
2021-05-21 03:00:00.000000,BTC,1,6,2,2.4,23,10,2
2021-05-21 04:00:00.000000,BTC,1,5,0,3.11,24,7,1
2021-05-21 05:00:00.000000,BTC,1.0526315789473684,4,1,3.22,14,14,2
2021-05-21 06:00:00.000000,BTC,1,4,3,6.8,17,11,0
2021-05-21 07:00:00.000000,BTC,1,0,1,10.69,19,13,0
2021-05-21 08:00:00.000000,BTC,1.0333333333333333,3,3,2.33,19,14,1
2021-05-21 09:00:00.000000,BTC,1,2,1,4.25,20,12,1
2021-05-21 10:00:00.000000,BTC,1,2,2,2.78,22,13,0
2021-05-21 11:00:00.000000,BTC,1,1,1,2.74,19,14,2
2021-05-21 12:00:00.000000,BTC,1,5,0,1.76,26,6,1
2021-05-21 13:00:00.000000,BTC,1,3,1,2.19,16,13,0
2021-05-21 14:00:00.000000,BTC,1,7,1,0.63,11,11,2
2021-05-21 15:00:00.000000,BTC,1.0476190476190476,3,1,3.05,20,3,0
2021-05-21 16:00:00.000000,BTC,1,3,1,1.71,26,14,0
2021-05-21 17:00:00.000000,BTC,1,5,1,2.55,24,15,1
2021-05-21 18:00:00.000000,BTC,1,4,2,3.4,24,7,2
2021-05-21 19:00:00.000000,BTC,1,9,5,2.26,24,14,1
2021-05-21 20:00:00.000000,BTC,1.0125,8,2,14.36,27,13,1
2021-05-21 21:00:00.000000,BTC,1,9,4,3.63,16,11,0
2021-05-21 22:00:00.000000,BTC,1.0192307692307692,7,5,2.36,27,12,0
2021-05-21 23:00:00.000000,BTC,1,1,5,3.27,18,7,0
2021-05-22 00:00:00.000000,BTC,0.98412698412698412698,12,6,4.4,19,13,1
2021-05-22 01:00:00.000000,BTC,1,8,5,1.86,19,11,1
2021-05-22 02:00:00.000000,BTC,1,15,8,1.84,28,9,2
2021-05-22 03:00:00.000000,BTC,1.03125,5,4,2.55,14,16,0
2021-05-22 04:00:00.000000,BTC,1,5,0,5.17,35,9,2
2021-05-22 05:00:00.000000,BTC,1,7,6,2.67,18,13,0
2021-05-22 06:00:00.000000,BTC,1,6,5,2.06,24,12,0
2021-05-22 07:00:00.000000,BTC,1,7,2,2.37,21,16,0
2021-05-22 08:00:00.000000,BTC,1,6,3,2.64,25,8,0
2021-05-22 09:00:00.000000,BTC,1.0434782608695652,1,7,2.08,26,13,1
2021-05-22 10:00:00.000000,BTC,1,5,3,1.38,17,12,0
2021-05-22 11:00:00.000000,BTC,1,4,5,1.71,14,15,0
2021-05-22 12:00:00.000000,BTC,1,3,2,7.26,24,12,0
2021-05-22 13:00:00.000000,BTC,1.0526315789473684,6,0,11.28,16,13,2
2021-05-22 14:00:00.000000,BTC,1,4,0,2.91,15,4,0
2021-05-22 15:00:00.000000,BTC,1,7,2,3.15,24,13,2
2021-05-22 16:00:00.000000,BTC,0.95833333333333333333,4,0,3.82,23,10,0
2021-05-22 17:00:00.000000,BTC,1,9,1,2.11,19,11,0
2021-05-22 18:00:00.000000,BTC,1,6,1,3.43,22,3,0
2021-05-22 19:00:00.000000,BTC,1,6,6,2.61,18,11,0
2021-05-22 20:00:00.000000,BTC,1,8,1,2.69,25,14,0
2021-05-22 21:00:00.000000,BTC,1,12,3,3.16,24,9,0
2021-05-22 22:00:00.000000,BTC,1,7,3,2.87,17,7,0
2021-05-22 23:00:00.000000,BTC,1,6,1,4.57,30,12,0
2021-05-23 00:00:00.000000,BTC,1,8,3,17.81,22,12,0
2021-05-23 01:00:00.000000,BTC,1,3,2,4.4,23,9,2
2021-05-23 02:00:00.000000,BTC,1,4,3,2.57,21,10,0
2021-05-23 03:00:00.000000,BTC,1,8,2,4.13,28,12,1
2021-05-23 04:00:00.000000,BTC,0.96,7,1,2.4,15,18,0
2021-05-23 05:00:00.000000,BTC,1,4,3,2.81,18,15,2
2021-05-23 06:00:00.000000,BTC,1,2,1,2.57,23,9,0
2021-05-23 07:00:00.000000,BTC,1,6,1,3.4,25,8,0
2021-05-23 08:00:00.000000,BTC,1,3,1,5.47,21,20,0
2021-05-23 09:00:00.000000,BTC,1,2,3,2.14,19,21,0
2021-05-23 10:00:00.000000,BTC,1,3,1,2.96,23,11,0
2021-05-23 11:00:00.000000,BTC,1,3,1,3.77,17,15,0
2021-05-23 12:00:00.000000,BTC,1,3,1,3.45,21,5,1
2021-05-23 13:00:00.000000,BTC,1,3,5,2.02,18,15,1
2021-05-23 14:00:00.000000,BTC,1.08,5,3,3.55,13,22,0
2021-05-23 15:00:00.000000,BTC,1,4,0,2.59,24,14,2
2021-05-23 16:00:00.000000,BTC,1,4,2,5.59,19,8,0
2021-05-23 17:00:00.000000,BTC,1,2,2,2.91,16,7,1
2021-05-23 18:00:00.000000,BTC,1,13,6,2.06,19,16,0
2021-05-23 19:00:00.000000,BTC,1,12,3,3.07,23,14,0
2021-05-23 20:00:00.000000,BTC,1,10,2,4.9,16,7,1
2021-05-23 21:00:00.000000,BTC,1,6,5,2.42,19,11,1
2021-05-23 22:00:00.000000,BTC,1,7,5,2.05,19,12,0
2021-05-23 23:00:00.000000,BTC,1,6,7,1.78,21,15,0
2021-05-24 00:00:00.000000,BTC,1.0161290322580645,14,2,2.37,17,13,2
2021-05-24 01:00:00.000000,BTC,1,7,2,0,0,0,2
2021-05-24 02:00:00.000000,BTC,1.0181818181818182,13,5,1.72,30,14,0
2021-05-24 03:00:00.000000,BTC,1,4,3,2.47,18,10,0
2021-05-24 04:00:00.000000,BTC,1.03125,7,2,1.19,16,17,2
2021-05-24 05:00:00.000000,BTC,1,3,1,9.77,14,8,2
2021-05-24 06:00:00.000000,BTC,1,3,1,2.29,16,15,0
2021-05-24 07:00:00.000000,BTC,0.96,2,5,1.91,19,11,0
2021-05-24 08:00:00.000000,BTC,1,1,0,3.06,19,10,0
2021-05-24 09:00:00.000000,BTC,1,4,0,2.34,21,10,0
2021-05-24 10:00:00.000000,BTC,1,4,3,2.2,14,16,0
2021-05-24 11:00:00.000000,BTC,1,5,1,2.24,19,18,2
2021-05-24 12:00:00.000000,BTC,1,3,0,2.86,23,4,2
2021-05-24 13:00:00.000000,BTC,1,4,2,3.39,27,10,0
2021-05-24 14:00:00.000000,BTC,1,1,2,3.26,17,7,0
2021-05-24 15:00:00.000000,BTC,1,4,0,2.27,22,6,0
2021-05-24 16:00:00.000000,BTC,1,8,1,2.05,14,9,2
2021-05-24 17:00:00.000000,BTC,1,5,1,3.18,17,10,2
2021-05-24 18:00:00.000000,BTC,1,6,1,5.11,28,7,1
2021-05-24 19:00:00.000000,BTC,1,4,0,3.17,29,14,0
2021-05-24 20:00:00.000000,BTC,1,1,0,3.06,23,13,0
2021-05-24 21:00:00.000000,BTC,1,9,3,9.17,30,10,0
2021-05-24 22:00:00.000000,BTC,1.024390243902439,13,6,2.13,27,13,0
2021-05-24 23:00:00.000000,BTC,1,3,1,0,0,0,0
2021-05-25 00:00:00.000000,BTC,1,7,1,2.92,27,7,2
2021-05-25 01:00:00.000000,BTC,1,6,5,0,0,0,1
2021-05-25 02:00:00.000000,BTC,1,2,0,18.01,25,12,0
2021-05-25 03:00:00.000000,BTC,1,2,3,0,0,0,0
2021-05-25 04:00:00.000000,BTC,1,2,2,2.98,22,8,0
2021-05-25 05:00:00.000000,BTC,1,4,1,3.53,25,21,2
2021-05-25 06:00:00.000000,BTC,1,2,0,3.18,25,11,1
2021-05-25 07:00:00.000000,BTC,1,4,0,1.74,29,8,1
2021-05-25 08:00:00.000000,BTC,1,4,0,1.85,9,14,0
2021-05-25 09:00:00.000000,BTC,1,2,0,2.17,16,9,0
2021-05-25 10:00:00.000000,BTC,1,0,3,1.57,22,16,0
2021-05-25 11:00:00.000000,BTC,1,3,3,2.18,20,14,2
2021-05-25 12:00:00.000000,BTC,1,7,0,1.54,12,6,0
2021-05-25 13:00:00.000000,BTC,1,4,1,1.58,22,13,1
2021-05-25 14:00:00.000000,BTC,1,3,0,0,0,0,0
2021-05-25 15:00:00.000000,BTC,1,1,2,11.87,26,13,1
2021-05-25 16:00:00.000000,BTC,1,0,0,1.47,15,14,1
2021-05-25 17:00:00.000000,BTC,1.0333333333333333,2,2,2.65,15,9,2
2021-05-25 18:00:00.000000,BTC,1,1,2,2.45,21,14,0
2021-05-25 19:00:00.000000,BTC,1,6,2,2.63,20,12,0
2021-05-25 20:00:00.000000,BTC,1,4,0,2.26,20,19,2
2021-05-25 21:00:00.000000,BTC,1,4,1,1.79,23,15,0
2021-05-25 22:00:00.000000,BTC,1,5,2,1.92,21,11,0
2021-05-25 23:00:00.000000,BTC,1,6,0,1.73,17,15,0
2021-05-26 00:00:00.000000,BTC,1,3,1,2.59,17,16,1
2021-05-26 01:00:00.000000,BTC,0.94117647058823529412,2,1,1.37,21,8,0
2021-05-26 02:00:00.000000,BTC,1,3,3,4.62,24,13,0
2021-05-26 03:00:00.000000,BTC,1,0,0,6.03,21,11,0
2021-05-26 04:00:00.000000,BTC,1,2,2,7.74,20,10,0
2021-05-26 05:00:00.000000,BTC,1,2,0,3.18,23,10,0
2021-05-26 06:00:00.000000,BTC,1,2,2,2.45,21,10,2
2021-05-26 07:00:00.000000,BTC,1,2,2,3.16,21,14,2
2021-05-26 08:00:00.000000,BTC,1,1,0,0,0,0,0
2021-05-26 09:00:00.000000,BTC,1,2,1,3.32,28,9,0
2021-05-26 10:00:00.000000,BTC,1,0,0,5.41,24,6,0
2021-05-26 11:00:00.000000,BTC,1,3,0,1.72,15,15,2
2021-05-26 12:00:00.000000,BTC,1,1,1,2.65,18,13,0
2021-05-26 13:00:00.000000,BTC,1,2,0,2.63,23,11,0
2021-05-26 14:00:00.000000,BTC,0.94736842105263157895,3,3,1.55,21,4,0
2021-05-26 15:00:00.000000,BTC,1,3,4,1.01,23,11,0
2021-05-26 16:00:00.000000,BTC,1,1,1,2.85,17,14,0
2021-05-26 17:00:00.000000,BTC,1,2,3,2.96,23,18,0
2021-05-26 18:00:00.000000,BTC,1,3,5,0,0,0,1
2021-05-26 19:00:00.000000,BTC,1,10,3,2.32,20,16,0
2021-05-26 20:00:00.000000,BTC,1,3,4,2.82,16,11,0
2021-05-26 21:00:00.000000,BTC,1.1714285714285714,7,1,2.23,24,11,0
2021-05-26 22:00:00.000000,BTC,1.0833333333333333,4,5,1.84,22,9,0
2021-05-26 23:00:00.000000,BTC,1,7,0,9.19,21,16,0
2021-05-27 00:00:00.000000,BTC,1,3,0,2.58,21,8,0
2021-05-27 01:00:00.000000,BTC,1,4,3,1.12,29,9,0
2021-05-27 02:00:00.000000,BTC,1.0416666666666667,3,0,3.86,26,12,0
2021-05-27 03:00:00.000000,BTC,1,4,0,2.02,30,9,0
2021-05-27 04:00:00.000000,BTC,1,3,1,2.32,27,14,0
2021-05-27 05:00:00.000000,BTC,1,2,1,14.52,22,12,1
2021-05-27 06:00:00.000000,BTC,1,2,0,5.52,21,11,1
2021-05-27 07:00:00.000000,BTC,0.95238095238095238095,5,0,4.22,22,7,0
2021-05-27 08:00:00.000000,BTC,1,2,1,1.95,22,20,0
2021-05-27 09:00:00.000000,BTC,1,3,1,3.72,24,14,0
2021-05-27 10:00:00.000000,BTC,1,4,1,3.25,31,7,0
2021-05-27 11:00:00.000000,BTC,1,4,1,0,0,0,0
2021-05-27 12:00:00.000000,BTC,1,0,1,2.46,12,16,0
2021-05-27 13:00:00.000000,BTC,1,0,2,2.5,21,10,2
2021-05-27 14:00:00.000000,BTC,1,1,1,7.62,20,8,0
2021-05-27 15:00:00.000000,BTC,1,1,0,5.4,22,15,0
2021-05-27 16:00:00.000000,BTC,1,4,2,2.72,28,9,2
2021-05-27 17:00:00.000000,BTC,1,1,0,4.07,21,7,0
2021-05-27 18:00:00.000000,BTC,1,4,2,2.63,22,12,2
2021-05-27 19:00:00.000000,BTC,1,7,5,1.89,21,15,0
2021-05-27 20:00:00.000000,BTC,1,5,4,1.81,28,14,0
2021-05-27 21:00:00.000000,BTC,1,10,5,1.98,21,7,1
2021-05-27 22:00:00.000000,BTC,1,4,3,4.84,18,8,0
2021-05-27 23:00:00.000000,BTC,1,7,1,3,22,11,0
2021-05-28 00:00:00.000000,BTC,1,2,2,2.43,23,15,0
2021-05-28 01:00:00.000000,BTC,1,3,0,5.24,20,9,0
2021-05-28 02:00:00.000000,BTC,1,3,3,2.91,21,15,2
2021-05-28 03:00:00.000000,BTC,1,1,2,13,17,14,0
2021-05-28 04:00:00.000000,BTC,1,3,2,2.13,19,14,0
2021-05-28 05:00:00.000000,BTC,1,1,0,5.2,18,8,0
2021-05-28 06:00:00.000000,BTC,1,1,0,3.84,15,22,0
2021-05-28 07:00:00.000000,BTC,1,3,2,3.63,28,10,0
2021-05-28 08:00:00.000000,BTC,1,0,3,3.44,23,17,0
2021-05-28 09:00:00.000000,BTC,1,4,0,2.03,18,15,1
2021-05-28 10:00:00.000000,BTC,1,4,1,2.17,12,8,0
2021-05-28 11:00:00.000000,BTC,1,3,1,1.54,20,11,0
2021-05-28 12:00:00.000000,BTC,1,1,3,1.88,21,14,0
2021-05-28 13:00:00.000000,BTC,1,0,1,1.34,21,7,1
2021-05-28 14:00:00.000000,BTC,1.0416666666666667,4,1,1.8,21,17,0
2021-05-28 15:00:00.000000,BTC,1,2,1,2.71,22,13,0
2021-05-28 16:00:00.000000,BTC,1,3,2,2.99,16,16,1
2021-05-28 17:00:00.000000,BTC,1,3,1,3.18,13,19,2
2021-05-28 18:00:00.000000,BTC,0.92857142857142857143,1,2,4.06,18,12,0
2021-05-28 19:00:00.000000,BTC,1,2,5,2.41,19,11,0
2021-05-28 20:00:00.000000,BTC,1,8,2,2.24,25,13,0
2021-05-28 21:00:00.000000,BTC,1,3,1,1.7777777777777778,16,9,1
2021-05-28 22:00:00.000000,BTC,1,5,2,2.27,20,11,0
2021-05-28 23:00:00.000000,BTC,0.95833333333333333333,3,6,1.83,15,11,0
2021-05-29 00:00:00.000000,BTC,1,3,3,5.65,20,6,0
2021-05-29 01:00:00.000000,BTC,1,3,0,2.85,22,11,1
2021-05-29 02:00:00.000000,BTC,1,1,0,1.98,24,17,0
2021-05-29 03:00:00.000000,BTC,1,4,3,3.23,22,18,0
2021-05-29 04:00:00.000000,BTC,1,2,2,6.08,25,13,2
2021-05-29 05:00:00.000000,BTC,1,2,2,4.53,25,13,2
2021-05-29 06:00:00.000000,BTC,1,2,1,0,0,0,0
2021-05-29 07:00:00.000000,BTC,1,2,2,3.53,30,11,0
2021-05-29 08:00:00.000000,BTC,1,3,1,2.67,20,6,0
2021-05-29 09:00:00.000000,BTC,1,2,1,2.58,27,12,1
2021-05-29 10:00:00.000000,BTC,1,3,1,2.5,18,12,2
2021-05-29 11:00:00.000000,BTC,1,4,1,2.1515151515151515,15,10,0
2021-05-29 12:00:00.000000,BTC,0.875,2,0,2.29,19,15,0
2021-05-29 13:00:00.000000,BTC,1,5,0,2.15,25,16,0
2021-05-29 14:00:00.000000,BTC,1,3,0,1.4,17,9,0
2021-05-29 15:00:00.000000,BTC,1,3,2,2.56,21,9,0
2021-05-29 16:00:00.000000,BTC,1,4,1,3.31,21,10,0
2021-05-29 17:00:00.000000,BTC,1,1,0,2.32,21,10,1
2021-05-29 18:00:00.000000,BTC,1,0,0,1.79,19,13,0
2021-05-29 19:00:00.000000,BTC,1,1,2,2.36,11,9,0
2021-05-29 20:00:00.000000,BTC,1,4,4,2.72,15,9,0
2021-05-29 21:00:00.000000,BTC,1,6,3,3.6,23,10,0
2021-05-29 22:00:00.000000,BTC,1,2,0,2.37,21,9,1
2021-05-29 23:00:00.000000,BTC,1,2,1,2.61,18,15,0
2021-05-30 00:00:00.000000,BTC,1,6,0,1.57,15,11,0
2021-05-30 01:00:00.000000,BTC,1,2,1,2.85,26,7,0
2021-05-30 02:00:00.000000,BTC,1,1,2,2.34,25,5,0
2021-05-30 03:00:00.000000,BTC,1,6,3,6.59,27,10,0
2021-05-30 04:00:00.000000,BTC,1,2,1,0.96,22,5,0
2021-05-30 05:00:00.000000,BTC,1,8,2,1.26,22,10,1
2021-05-30 06:00:00.000000,BTC,1,4,1,2.48,19,13,0
2021-05-30 07:00:00.000000,BTC,1,1,1,2.2,18,7,2
2021-05-30 08:00:00.000000,BTC,1,1,3,2.83,26,11,0
2021-05-30 09:00:00.000000,BTC,1,3,0,2.31,19,7,0
2021-05-30 10:00:00.000000,BTC,1,1,0,0,0,0,2
2021-05-30 11:00:00.000000,BTC,1,3,1,3.51,19,5,0
2021-05-30 12:00:00.000000,BTC,1,4,2,3.04,20,8,0
2021-05-30 13:00:00.000000,BTC,1,1,1,3.19,18,9,0
2021-05-30 14:00:00.000000,BTC,1,2,2,2.04,20,10,0
2021-05-30 15:00:00.000000,BTC,1,4,1,1.79,14,15,0
2021-05-30 16:00:00.000000,BTC,1,6,0,1.82,21,6,2
2021-05-30 17:00:00.000000,BTC,1,2,1,3.19,24,6,1
2021-05-30 18:00:00.000000,BTC,1,3,0,4.44,22,18,0
2021-05-30 19:00:00.000000,BTC,1,7,1,3.83,21,13,0
2021-05-30 20:00:00.000000,BTC,1,3,2,1.66,15,4,0
2021-05-30 21:00:00.000000,BTC,1,8,3,2.78,23,10,0
2021-05-30 22:00:00.000000,BTC,1.0384615384615385,6,1,3.16,32,7,0
2021-05-30 23:00:00.000000,BTC,1,3,2,7.5,24,16,0
2021-05-31 00:00:00.000000,BTC,1,2,1,2.05,19,16,0
2021-05-31 01:00:00.000000,BTC,1,3,2,1.8,24,15,0
2021-05-31 02:00:00.000000,BTC,1,3,2,2.17,26,11,0
2021-05-31 03:00:00.000000,BTC,1,1,0,2.27,25,7,0
2021-05-31 04:00:00.000000,BTC,1,2,0,3.88,23,6,0
2021-05-31 05:00:00.000000,BTC,1,3,0,3.33,12,11,0
2021-05-31 06:00:00.000000,BTC,1,3,1,3.84,29,8,1
2021-05-31 07:00:00.000000,BTC,1.4444444444444444,2,1,3.48,28,3,0
2021-05-31 08:00:00.000000,BTC,0.875,5,1,7.66,24,11,0
2021-05-31 09:00:00.000000,BTC,1.75,2,1,5.33,19,14,0
2021-05-31 10:00:00.000000,BTC,2.3333333333333333,1,1,10.4,30,9,0
2021-05-31 11:00:00.000000,BTC,1.1666666666666667,2,1,2.41,19,15,2
2021-05-31 12:00:00.000000,BTC,1.5294117647058824,3,0,2.8,20,14,2
2021-05-31 13:00:00.000000,BTC,3.4615384615384615,1,2,14,19,14,0
2021-05-31 14:00:00.000000,BTC,2.4705882352941176,1,5,4.48,25,8,0
2021-05-31 15:00:00.000000,BTC,1.0833333333333333,4,0,3.15,22,13,2
2021-05-31 16:00:00.000000,BTC,0.83333333333333333333,0,2,2.77,16,13,0
2021-05-31 17:00:00.000000,BTC,1.3076923076923077,2,1,2.49,24,7,0
2021-05-31 18:00:00.000000,BTC,1.4137931034482759,4,1,2.56,19,13,0
2021-05-31 19:00:00.000000,BTC,1.7575757575757576,5,5,1.76,14,10,0
2021-05-31 20:00:00.000000,BTC,1.8214285714285714,2,1,4.34,16,12,0
2021-05-31 21:00:00.000000,BTC,1.4545454545454545,5,0,2.2,18,15,0
2021-05-31 22:00:00.000000,BTC,1.8333333333333333,6,1,4.15,21,8,0
2021-05-31 23:00:00.000000,BTC,1.5454545454545455,3,1,2.85,25,9,0
2021-06-01 00:00:00.000000,BTC,1.2,2,0,2.25,20,13,0
2021-06-01 01:00:00.000000,BTC,1,4,0,10.49,26,12,0
2021-06-01 02:00:00.000000,BTC,1,3,2,3.16,17,10,0
2021-06-01 03:00:00.000000,BTC,1,1,1,3.37,16,7,0
2021-06-01 04:00:00.000000,BTC,1,0,0,2.02,19,15,0
2021-06-01 05:00:00.000000,BTC,1,1,0,4.34,22,9,2
2021-06-01 06:00:00.000000,BTC,1,4,0,3.2,23,15,1
2021-06-01 07:00:00.000000,BTC,1,3,1,2.65,22,13,0
2021-06-01 08:00:00.000000,BTC,1,3,1,2.08,20,12,0
2021-06-01 09:00:00.000000,BTC,1,1,0,2.04,28,8,0
2021-06-01 10:00:00.000000,BTC,1,1,0,2.28,20,9,2
2021-06-01 11:00:00.000000,BTC,1,2,0,1.96,25,6,0
2021-06-01 12:00:00.000000,BTC,1,7,1,2.15,19,12,0
2021-06-01 13:00:00.000000,BTC,1,0,0,1.76,17,7,1
2021-06-01 14:00:00.000000,BTC,1,3,0,1.38,22,15,0
2021-06-01 15:00:00.000000,BTC,1,1,1,2.11,17,9,0
2021-06-01 16:00:00.000000,BTC,1.0625,5,1,6.74,26,13,0
2021-06-01 17:00:00.000000,BTC,1,3,0,3.09,26,12,0
2021-06-01 18:00:00.000000,BTC,1,5,3,2,31,14,2
2021-06-01 19:00:00.000000,BTC,1,6,1,3.74,23,9,0
2021-06-01 20:00:00.000000,BTC,1.03125,3,2,3.23,21,15,0
2021-06-01 21:00:00.000000,BTC,1,4,1,2.06,29,6,0
2021-06-01 22:00:00.000000,BTC,1,9,4,2.04,18,8,0
2021-06-01 23:00:00.000000,BTC,1,4,0,2.19,16,13,0
2021-06-02 00:00:00.000000,BTC,1,3,1,2.4,17,14,0
2021-06-02 01:00:00.000000,BTC,1,5,1,3.15,25,11,0
2021-06-02 02:00:00.000000,BTC,1,3,0,2.8,19,9,0
2021-06-02 03:00:00.000000,BTC,1,4,0,2.78,20,14,0
2021-06-02 04:00:00.000000,BTC,1,3,0,3.9,16,11,0
2021-06-02 05:00:00.000000,BTC,1,2,1,4.22,17,11,0
2021-06-02 06:00:00.000000,BTC,1,2,0,3.43,34,5,0
2021-06-02 07:00:00.000000,BTC,1,3,0,2.95,16,20,0
2021-06-02 08:00:00.000000,BTC,1,0,1,2.45,18,14,0
2021-06-02 09:00:00.000000,BTC,1,3,0,2.09,27,7,0
2021-06-02 10:00:00.000000,BTC,1,4,1,2.95,18,7,0
2021-06-02 11:00:00.000000,BTC,1,2,3,2.04,28,8,0
2021-06-02 12:00:00.000000,BTC,1,1,0,1.55,20,4,0
2021-06-02 13:00:00.000000,BTC,1,2,0,3.51,19,15,0
2021-06-02 14:00:00.000000,BTC,1,5,1,1.91,18,6,0
2021-06-02 15:00:00.000000,BTC,1,2,3,4.33,22,11,0
2021-06-02 16:00:00.000000,BTC,1,1,1,2.75,23,12,0
2021-06-02 17:00:00.000000,BTC,1,1,2,2.86,25,11,0
2021-06-02 18:00:00.000000,BTC,1,2,1,2.43,17,8,0
2021-06-02 19:00:00.000000,BTC,1,2,1,1.54,18,4,0
2021-06-02 20:00:00.000000,BTC,1,4,2,2.29,19,11,0
2021-06-02 21:00:00.000000,BTC,1,2,1,2.85,18,12,0
2021-06-02 22:00:00.000000,BTC,1,2,0,2.67,16,7,0
2021-06-02 23:00:00.000000,BTC,1,1,1,2.5,28,7,0
2021-06-03 00:00:00.000000,BTC,1,1,1,6.02,26,8,0
2021-06-03 01:00:00.000000,BTC,1,0,1,1.74,20,14,0
2021-06-03 02:00:00.000000,BTC,1,0,1,4.44,31,12,0
2021-06-03 03:00:00.000000,BTC,1,2,1,4.4,24,5,0
2021-06-03 04:00:00.000000,BTC,1,2,1,3.17,27,14,0
2021-06-03 05:00:00.000000,BTC,1,2,0,1.84,19,8,0
2021-06-03 06:00:00.000000,BTC,1,2,0,1.74,18,10,0
2021-06-03 07:00:00.000000,BTC,1,1,1,2.04,23,10,0
2021-06-03 08:00:00.000000,BTC,1,1,1,3.01,31,8,0
2021-06-03 09:00:00.000000,BTC,1,3,0,2.86,21,15,0
2021-06-03 10:00:00.000000,BTC,1,5,0,8.18,22,12,2
2021-06-03 11:00:00.000000,BTC,1,3,1,6.31,21,13,0
2021-06-03 12:00:00.000000,BTC,1,0,1,8.88,25,11,0
2021-06-03 13:00:00.000000,BTC,1,1,0,3.53,23,10,0
2021-06-03 14:00:00.000000,BTC,1,4,1,2.02,17,4,0
2021-06-03 15:00:00.000000,BTC,1,4,1,4.05,27,12,0
2021-06-03 16:00:00.000000,BTC,0.95454545454545454545,3,1,3.92,16,15,1
2021-06-03 17:00:00.000000,BTC,1,4,3,5.0416666666666667,20,9,0
2021-06-03 18:00:00.000000,BTC,1,4,1,3.3,27,14,1
2021-06-03 19:00:00.000000,BTC,1,6,2,3.5757575757575758,29,11,0
2021-06-03 20:00:00.000000,BTC,1.0434782608695652,4,0,1.84,21,11,0
2021-06-03 21:00:00.000000,BTC,0.95,2,1,2.05,18,12,0
2021-06-03 22:00:00.000000,BTC,1.0909090909090909,2,1,2.36,24,15,0
2021-06-03 23:00:00.000000,BTC,1.0526315789473684,5,3,2.16,26,8,0
2021-06-04 00:00:00.000000,BTC,1.2352941176470588,5,0,1.98,21,12,0
2021-06-04 01:00:00.000000,BTC,1.3333333333333333,4,0,1.87,28,11,0
2021-06-04 02:00:00.000000,BTC,1.36,5,1,1.78,23,9,0
2021-06-04 03:00:00.000000,BTC,0.94736842105263157895,3,4,1.71,20,8,0
2021-06-04 04:00:00.000000,BTC,1.1428571428571429,6,1,2.76,22,12,0
2021-06-04 05:00:00.000000,BTC,1,2,0,5.42,18,12,1
2021-06-04 06:00:00.000000,BTC,1,2,1,2.42,18,19,1
2021-06-04 07:00:00.000000,BTC,1,2,3,4.11,23,11,0
2021-06-04 08:00:00.000000,BTC,1,2,2,3.33,19,11,0
2021-06-04 09:00:00.000000,BTC,1,6,1,3.85,18,17,0
2021-06-04 10:00:00.000000,BTC,1,3,3,1.77,25,12,1
2021-06-04 11:00:00.000000,BTC,1,1,1,3.55,24,14,0
2021-06-04 12:00:00.000000,BTC,1,3,2,2.85,15,11,0
2021-06-04 13:00:00.000000,BTC,1,4,2,7.05,26,15,0
2021-06-04 14:00:00.000000,BTC,1,2,0,5.54,15,18,0
2021-06-04 15:00:00.000000,BTC,1,2,0,3.25,23,11,0
2021-06-04 16:00:00.000000,BTC,1,0,2,2.61,15,14,0
2021-06-04 17:00:00.000000,BTC,1,3,3,1.92,18,23,0
2021-06-04 18:00:00.000000,BTC,1,3,3,2.93,14,13,0
2021-06-04 19:00:00.000000,BTC,1.027027027027027,6,3,1.89,13,13,0
2021-06-04 20:00:00.000000,BTC,1,7,1,1.7,21,9,0
2021-06-04 21:00:00.000000,BTC,1,8,3,5.66,24,6,0
2021-06-04 22:00:00.000000,BTC,1,4,3,3.18,25,9,0
2021-06-04 23:00:00.000000,BTC,1,5,0,2.92,24,12,0
2021-06-05 00:00:00.000000,BTC,1,2,1,2.82,19,8,0
2021-06-05 01:00:00.000000,BTC,1,2,0,2.23,22,15,0
2021-06-05 02:00:00.000000,BTC,1,4,3,6.86,19,10,0
2021-06-05 03:00:00.000000,BTC,1,3,2,3.5,27,14,0
2021-06-05 04:00:00.000000,BTC,1,5,3,2.32,15,9,0
2021-06-05 05:00:00.000000,BTC,1,4,2,2.83,31,11,2
2021-06-05 06:00:00.000000,BTC,1,2,0,2.03,20,13,0
2021-06-05 07:00:00.000000,BTC,1,1,1,2.99,19,16,0
2021-06-05 08:00:00.000000,BTC,1,2,0,1.95,26,14,0
2021-06-05 09:00:00.000000,BTC,1,1,0,2.65,22,10,0
2021-06-05 10:00:00.000000,BTC,1,5,1,2.58,22,11,0
2021-06-05 11:00:00.000000,BTC,1,1,4,5.32,37,13,0
2021-06-05 12:00:00.000000,BTC,1,1,2,3.31,28,9,0
2021-06-05 13:00:00.000000,BTC,1,2,0,1.44,21,11,0
2021-06-05 14:00:00.000000,BTC,1,2,1,1.44,20,11,1
2021-06-05 15:00:00.000000,BTC,1,2,0,1.53,25,14,0
2021-06-05 16:00:00.000000,BTC,1,5,3,1.92,34,8,1
2021-06-05 17:00:00.000000,BTC,1,0,0,1.86,24,13,0
2021-06-05 18:00:00.000000,BTC,1,5,0,2.12,22,13,0
2021-06-05 19:00:00.000000,BTC,1,4,2,1.73,33,10,0
2021-06-05 20:00:00.000000,BTC,1,2,2,2.23,23,14,2
2021-06-05 21:00:00.000000,BTC,0.96875,4,3,2.86,30,13,0
2021-06-05 22:00:00.000000,BTC,1,5,0,2.25,29,11,0
2021-06-05 23:00:00.000000,BTC,1,4,2,1.87,16,18,0
2021-06-06 00:00:00.000000,BTC,1,3,0,2.14,29,6,0
2021-06-06 01:00:00.000000,BTC,1,6,1,2.34,18,12,0
2021-06-06 02:00:00.000000,BTC,1.125,9,2,6.48,15,12,1
2021-06-06 03:00:00.000000,BTC,1,5,4,2.96,25,11,0
2021-06-06 04:00:00.000000,BTC,1,4,1,3.23,37,5,0
2021-06-06 05:00:00.000000,BTC,1,4,0,11.16,36,12,0
2021-06-06 06:00:00.000000,BTC,1,7,1,2.44,21,20,2
2021-06-06 07:00:00.000000,BTC,1,8,1,2.15,15,14,0
2021-06-06 08:00:00.000000,BTC,1,3,3,3.19,23,13,0
2021-06-06 09:00:00.000000,BTC,1,1,3,3.77,30,14,0
2021-06-06 10:00:00.000000,BTC,1,2,1,2.12,17,7,0
2021-06-06 11:00:00.000000,BTC,1,3,0,3.12,18,12,0
2021-06-06 12:00:00.000000,BTC,1,1,1,1.78,29,12,0
2021-06-06 13:00:00.000000,BTC,1,7,2,2.69,30,10,0
2021-06-06 14:00:00.000000,BTC,1,3,2,3.68,17,10,0
2021-06-06 15:00:00.000000,BTC,1,7,2,3.02,17,6,0
2021-06-06 16:00:00.000000,BTC,1,2,1,3.63,23,15,0
2021-06-06 17:00:00.000000,BTC,1,0,2,2.56,19,13,0
2021-06-06 18:00:00.000000,BTC,1,5,0,2.03,16,9,0
2021-06-06 19:00:00.000000,BTC,1,7,1,1.59,23,13,0
2021-06-06 20:00:00.000000,BTC,1,8,5,4.9,15,9,0
2021-06-06 21:00:00.000000,BTC,1,8,3,4.72,23,11,0
2021-06-06 22:00:00.000000,BTC,1,3,1,2.86,21,8,0
2021-06-06 23:00:00.000000,BTC,1,1,1,2.79,21,12,0
2021-06-07 00:00:00.000000,BTC,1,4,2,1.84,22,8,0
2021-06-07 01:00:00.000000,BTC,1,4,0,2.89,20,15,0
2021-06-07 02:00:00.000000,BTC,1,4,5,3.48,27,9,0
2021-06-07 03:00:00.000000,BTC,1,2,1,1.87,21,9,0
2021-06-07 04:00:00.000000,BTC,1,3,4,2.24,20,18,0
2021-06-07 05:00:00.000000,BTC,1,1,0,2.36,28,14,2
2021-06-07 06:00:00.000000,BTC,1,1,0,3.69,23,6,0
2021-06-07 07:00:00.000000,BTC,1,5,1,3.3,19,7,0
2021-06-07 08:00:00.000000,BTC,1,0,1,6.16,18,9,0
2021-06-07 09:00:00.000000,BTC,1,1,0,7.17,18,17,0
2021-06-07 10:00:00.000000,BTC,1,1,0,5.01,23,4,0
2021-06-07 11:00:00.000000,BTC,1,2,1,5.14,21,12,0
2021-06-07 12:00:00.000000,BTC,1,7,0,3.68,30,5,0
2021-06-07 13:00:00.000000,BTC,1,0,1,2.92,18,9,0
2021-06-07 14:00:00.000000,BTC,1.1111111111111111,1,0,2.1,17,18,0
2021-06-07 15:00:00.000000,BTC,1,1,0,1.69,25,8,0
2021-06-07 16:00:00.000000,BTC,1,2,2,2.95,26,5,0
2021-06-07 17:00:00.000000,BTC,1.1818181818181818,9,1,2.64,20,7,0
2021-06-07 18:00:00.000000,BTC,0.96,7,0,5.56,24,8,0
2021-06-07 19:00:00.000000,BTC,1,7,1,4.46,24,9,0
2021-06-07 20:00:00.000000,BTC,1,5,0,2.76,24,11,0
2021-06-07 21:00:00.000000,BTC,1,5,1,3.77,30,8,0
2021-06-07 22:00:00.000000,BTC,0.96666666666666666667,10,3,6.12,20,11,0
2021-06-07 23:00:00.000000,BTC,1,6,2,8.01,19,11,0
2021-06-08 00:00:00.000000,BTC,1.1481481481481481,6,2,6.65,23,7,0
2021-06-08 01:00:00.000000,BTC,1.3243243243243243,12,4,7.1,20,16,1
2021-06-08 02:00:00.000000,BTC,1.1794871794871795,10,2,4.56,14,11,0
2021-06-08 03:00:00.000000,BTC,1.1388888888888889,4,3,2.29,22,12,0
2021-06-08 04:00:00.000000,BTC,1,3,1,4.01,21,14,1
2021-06-08 05:00:00.000000,BTC,1,5,4,1.17,23,7,0
2021-06-08 06:00:00.000000,BTC,1,3,4,2.33,14,14,0
2021-06-08 07:00:00.000000,BTC,1,2,2,3.23,22,12,1
2021-06-08 08:00:00.000000,BTC,1,2,3,2.91,22,14,0
2021-06-08 09:00:00.000000,BTC,1,7,3,1.88,24,11,0
2021-06-08 10:00:00.000000,BTC,1,7,3,2.14,25,13,0
2021-06-08 11:00:00.000000,BTC,1,4,1,2.4,19,7,0
2021-06-08 12:00:00.000000,BTC,1,3,1,1.74,19,12,0
2021-06-08 13:00:00.000000,BTC,1,1,2,1.66,16,6,0
2021-06-08 14:00:00.000000,BTC,1,3,3,1.55,18,8,0
2021-06-08 15:00:00.000000,BTC,2.2857142857142857,0,1,1.14,19,13,0
2021-06-08 16:00:00.000000,BTC,1.2307692307692308,3,3,3.02,19,8,0
2021-06-08 17:00:00.000000,BTC,1.4210526315789474,3,2,2.84,22,10,0
2021-06-08 18:00:00.000000,BTC,1,7,1,4,16,12,1
2021-06-08 19:00:00.000000,BTC,1,10,2,2,21,11,1
2021-06-08 20:00:00.000000,BTC,1,8,1,3.16,28,10,0
2021-06-08 21:00:00.000000,BTC,1.024390243902439,5,5,2.3,26,11,0
2021-06-08 22:00:00.000000,BTC,1,7,5,5.07,15,9,0
2021-06-08 23:00:00.000000,BTC,1,1,4,2.56,30,14,2
2021-06-09 00:00:00.000000,BTC,1,7,3,3.19,17,15,0
2021-06-09 01:00:00.000000,BTC,1,5,0,5.74,32,14,2
2021-06-09 02:00:00.000000,BTC,1,7,5,4.35,22,13,0
2021-06-09 03:00:00.000000,BTC,1,1,3,2.07,23,14,0
2021-06-09 04:00:00.000000,BTC,1,1,2,2.88,19,14,0
2021-06-09 05:00:00.000000,BTC,1,1,4,2.37,18,12,0
2021-06-09 06:00:00.000000,BTC,0.86666666666666666667,3,2,1.88,22,18,0
2021-06-09 07:00:00.000000,BTC,1,4,2,1.37,14,11,0
2021-06-09 08:00:00.000000,BTC,1,3,1,2.76,23,10,0
2021-06-09 09:00:00.000000,BTC,1,3,0,2.93,24,14,0
2021-06-09 10:00:00.000000,BTC,1,2,1,5.74,26,9,2
2021-06-09 11:00:00.000000,BTC,1,5,4,15.57,26,6,2
2021-06-09 12:00:00.000000,BTC,1,4,1,7.33,24,7,0
2021-06-09 13:00:00.000000,BTC,1,4,2,6.29,23,6,0
2021-06-09 14:00:00.000000,BTC,0.95833333333333333333,7,1,2.5,26,10,0
2021-06-09 15:00:00.000000,BTC,1,8,2,2.696969696969697,15,12,0
2021-06-09 16:00:00.000000,BTC,1,7,5,2.99,25,11,0
2021-06-09 17:00:00.000000,BTC,1.1379310344827586,11,3,3.37,24,10,0
2021-06-09 18:00:00.000000,BTC,1.0227272727272727,8,5,2.38,23,13,0
2021-06-09 19:00:00.000000,BTC,1.0666666666666667,9,2,1.97,20,10,0
2021-06-09 20:00:00.000000,BTC,1,10,2,2.96,21,7,2
2021-06-09 21:00:00.000000,BTC,1.0975609756097561,5,3,2.85,26,7,0
2021-06-09 22:00:00.000000,BTC,1.1794871794871795,5,3,2.55,20,13,0
2021-06-09 23:00:00.000000,BTC,1.103448275862069,8,1,3.92,21,10,1
2021-06-10 00:00:00.000000,BTC,1.2093023255813953,3,2,6.64,18,13,0
2021-06-10 01:00:00.000000,BTC,1.4848484848484848,4,4,3.26,22,12,0
2021-06-10 02:00:00.000000,BTC,1.4615384615384615,2,1,2.42,27,19,0
2021-06-10 03:00:00.000000,BTC,1.5945945945945946,4,5,3.49,21,16,0
2021-06-10 04:00:00.000000,BTC,1.1818181818181818,1,2,2.98,26,7,0
2021-06-10 05:00:00.000000,BTC,1.4545454545454545,5,1,3.15,22,8,0
2021-06-10 06:00:00.000000,BTC,1.2592592592592593,2,1,2.18,21,8,0
2021-06-10 07:00:00.000000,BTC,1.04,6,1,2.98,31,12,0
2021-06-10 08:00:00.000000,BTC,1,2,1,3.08,22,9,0
2021-06-10 09:00:00.000000,BTC,1,4,2,3.1,18,18,0
2021-06-10 10:00:00.000000,BTC,0.92857142857142857143,1,1,3.54,25,10,0
2021-06-10 11:00:00.000000,BTC,1.0555555555555556,7,2,2.5,24,13,0
2021-06-10 12:00:00.000000,BTC,1.0384615384615385,6,2,3.46,28,13,0
2021-06-10 13:00:00.000000,BTC,1,3,1,2.23,18,13,1
2021-06-10 14:00:00.000000,BTC,1.12,2,3,5.99,16,8,2
2021-06-10 15:00:00.000000,BTC,1,6,2,2.26,18,13,0
2021-06-10 16:00:00.000000,BTC,1,5,2,3.16,24,10,0
2021-06-10 17:00:00.000000,BTC,1,5,3,5.07,21,11,0
2021-06-10 18:00:00.000000,BTC,0.89655172413793103448,4,1,3.55,27,10,0
2021-06-10 19:00:00.000000,BTC,1.625,4,2,2.69,21,10,1
2021-06-10 20:00:00.000000,BTC,1.7254901960784314,7,2,3.03,18,18,0
2021-06-10 21:00:00.000000,BTC,2,7,4,7.49,32,12,0
2021-06-10 22:00:00.000000,BTC,1.4054054054054054,4,5,3.96,23,7,0
2021-06-10 23:00:00.000000,BTC,1.5,3,3,2.91,19,20,0
2021-06-11 00:00:00.000000,BTC,2.2272727272727273,5,1,3.0707070707070707,25,13,0
2021-06-11 01:00:00.000000,BTC,2.84,5,2,2.88,19,10,0
2021-06-11 02:00:00.000000,BTC,1.1538461538461538,5,6,3.89,17,12,0
2021-06-11 03:00:00.000000,BTC,2.0769230769230769,0,0,2.83,24,18,0
2021-06-11 04:00:00.000000,BTC,2.5384615384615385,1,0,2.47,20,21,0
2021-06-11 05:00:00.000000,BTC,7.4705882352941176,0,2,1.99,20,6,0
2021-06-11 06:00:00.000000,BTC,1.4,0,2,5.87,18,15,0
2021-06-11 07:00:00.000000,BTC,1.8,3,0,5.54,25,16,0
2021-06-11 08:00:00.000000,BTC,1.1851851851851852,3,1,2.47,19,11,0
2021-06-11 09:00:00.000000,BTC,1.85,4,3,3.11,27,7,0
2021-06-11 11:00:00.000000,BTC,0.92857142857142857143,4,2,3.35,24,9,0
2021-06-11 13:00:00.000000,BTC,1,3,2,3.12,31,13,0
